
2019/07/30 11:17:01 (-480) - v1.2 - Device Booting (0)
2019/07/30 11:17:01 (-480) - v1.2 - Battery at Boot: 4178 mV, 100%
2019/07/30 11:17:04 (-480) - v1.2 - Error code 4006 from 5 at 408
2019/07/30 11:17:06 (-480) - v1.2 - Error code 4006 from 5 at 408
2019/07/30 11:17:10 (-480) - v1.2 - Error code 4006 from 5 at 578
2019/07/30 11:17:12 (-480) - v1.2 - Error code 4006 from 5 at 408
2019/07/30 11:17:14 (-480) - v1.2 - Error code 4006 from 5 at 408
2019/07/30 11:17:16 (-480) - v1.2 - Error code 4006 from 5 at 408
2019/07/30 11:17:20 (-480) - v1.2 - Software reset (1)
2019/07/30 11:17:20 (-480) - v1.2 - Battery at Boot: 4176 mV, 100%
2019/07/30 11:17:22 (-480) - v1.2 - Error code 4006 from 5 at 408
2019/07/30 11:17:24 (-480) - v1.2 - Error code 4006 from 5 at 408
2019/07/30 11:17:27 (-480) - v1.2 - Duration Estimate: 158 Hours
2019/07/30 21:25:50 (-480) - v1.2 - Device Booting (0)
2019/07/30 21:25:50 (-480) - v1.2 - Battery at Boot: 4121 mV, 91%
2019/07/31 18:18:23 (-480) - v1.2 - Device Booting (0)
2019/07/31 18:18:23 (-480) - v1.2 - Battery at Boot: 4043 mV, 80%
2019/07/31 18:18:40 (-480) - v1.2 - Device Booting (0)
2019/07/31 18:18:40 (-480) - v1.2 - Battery at Boot: 4043 mV, 80%
2019/07/31 22:04:38 (-480) - v1.2 - Device Booting (0)
2019/07/31 22:04:38 (-480) - v1.2 - Battery at Boot: 4026 mV, 78%
2019/07/31 22:04:46 (-480) - v1.2 - Error code 4006 from 5 at 578
2019/07/31 22:05:02 (-480) - v1.2 - Device Booting (0)
2019/07/31 22:05:02 (-480) - v1.2 - Battery at Boot: 4026 mV, 78%
2019/07/31 22:05:19 (-480) - v1.2 - Device Booting (0)
2019/07/31 22:05:19 (-480) - v1.2 - Battery at Boot: 4026 mV, 78%
2019/07/31 22:05:32 (-480) - v1.2 - Device Booting (0)
2019/07/31 22:05:32 (-480) - v1.2 - Battery at Boot: 4026 mV, 78%
2019/07/31 22:05:43 (-480) - v1.2 - Error code 4006 from 5 at 578
2019/07/31 22:05:45 (-480) - v1.2 - Error code 4006 from 5 at 408
2019/07/31 22:05:58 (-480) - v1.2 - Error code 4006 from 5 at 578
2019/07/31 22:06:00 (-480) - v1.2 - Error code 4006 from 5 at 408
2019/07/31 22:06:20 (-480) - v1.2 - Device Booting (0)
2019/07/31 22:06:20 (-480) - v1.2 - Battery at Boot: 4026 mV, 78%
2019/08/01 08:02:07 (-480) - v1.2 - Error code 4006 from 5 at 578
2019/08/01 08:02:09 (-480) - v1.2 - Error code 4006 from 5 at 408
2019/08/01 08:02:11 (-480) - v1.2 - Error code 4006 from 5 at 408
2019/08/01 08:02:13 (-480) - v1.2 - Error code 4006 from 5 at 408
2019/08/01 08:02:32 (-480) - v1.2 - Device Booting (0)
2019/08/01 08:02:32 (-480) - v1.2 - Battery at Boot: 3987 mV, 72%
2019/08/01 09:02:39 (-480) - v1.2 - Device Booting (0)
2019/08/01 09:02:39 (-480) - v1.2 - Battery at Boot: 3984 mV, 72%
2019/08/01 09:02:51 (-480) - v1.2 - Device Booting (0)
2019/08/01 09:02:51 (-480) - v1.2 - Battery at Boot: 3984 mV, 72%
2019/08/01 09:57:08 (-480) - v1.2 - Device Booting (0)
2019/08/01 09:57:08 (-480) - v1.2 - Battery at Boot: 3982 mV, 71%
2019/08/02 14:59:42 (-480) - v1.2 - Error code 4006 from 5 at 578
2019/08/02 14:59:44 (-480) - v1.2 - Error code 4006 from 5 at 408
2019/08/02 14:59:46 (-480) - v1.2 - Error code 4006 from 5 at 408
2019/08/02 14:59:57 (-480) - v1.2 - Device Booting (0)
2019/08/02 14:59:57 (-480) - v1.2 - Battery at Boot: 3897 mV, 58%
2019/08/02 15:00:50 (-480) - v1.2 - Device Booting (0)
2019/08/02 15:00:50 (-480) - v1.2 - Battery at Boot: 3897 mV, 58%
2019/08/02 15:01:03 (-480) - v1.2 - Device Booting (0)
2019/08/02 15:01:03 (-480) - v1.2 - Battery at Boot: 3896 mV, 58%
2019/08/02 15:03:19 (-480) - v1.2 - Device Booting (0)
2019/08/02 15:03:19 (-480) - v1.2 - Battery at Boot: 3896 mV, 58%
2019/08/02 15:47:07 (-480) - v1.2 - Device Booting (0)
2019/08/02 15:47:07 (-480) - v1.2 - Battery at Boot: 3894 mV, 58%
2019/08/02 15:47:20 (-480) - v1.2 - Error code 4006 from 5 at 578
2019/08/02 15:47:22 (-480) - v1.2 - Error code 4006 from 5 at 408
2019/08/02 15:52:35 (-480) - v1.2 - Device Booting (0)
2019/08/02 15:52:35 (-480) - v1.2 - Battery at Boot: 3894 mV, 58%
2019/08/02 16:09:42 (-480) - v1.2 - Device Booting (0)
2019/08/02 16:09:42 (-480) - v1.2 - Battery at Boot: 3893 mV, 58%
2019/08/02 16:10:06 (-480) - v1.2 - Device Booting (0)
2019/08/02 16:10:06 (-480) - v1.2 - Battery at Boot: 3893 mV, 58%
2019/08/05 09:22:34 (-480) - v1.2 - Device Booting (0)
2019/08/05 09:22:34 (-480) - v1.2 - Battery at Boot: 3773 mV, 27%
2019/08/05 09:22:36 (-480) - v1.2 - Error code 4006 from 5 at 408
2019/08/05 09:22:38 (-480) - v1.2 - Error code 4006 from 5 at 408
2019/08/05 09:22:40 (-480) - v1.2 - Error code 4006 from 5 at 408
2019/08/05 09:22:42 (-480) - v1.2 - Error code 4006 from 5 at 408
2019/08/05 09:22:45 (-480) - v1.2 - Error code 4006 from 5 at 408
2019/08/05 09:22:47 (-480) - v1.2 - Error code 4006 from 5 at 408
2019/08/05 09:22:50 (-480) - v1.2 - Software reset (1)
2019/08/05 09:22:50 (-480) - v1.2 - Battery at Boot: 3773 mV, 27%
2019/08/05 09:22:52 (-480) - v1.2 - Error code 4006 from 5 at 408
2019/08/05 09:22:55 (-480) - v1.2 - Error code 4006 from 5 at 408
2019/08/05 09:22:57 (-480) - v1.2 - Error code 4006 from 5 at 408
2019/08/05 09:22:59 (-480) - v1.2 - Error code 4006 from 5 at 408
2019/08/05 09:23:01 (-480) - v1.2 - Error code 4006 from 5 at 408
2019/08/05 09:23:03 (-480) - v1.2 - Error code 4006 from 5 at 408
2019/08/05 09:23:07 (-480) - v1.2 - Software reset (1)
2019/08/05 09:23:07 (-480) - v1.2 - Battery at Boot: 3772 mV, 27%
2019/08/05 09:23:09 (-480) - v1.2 - Error code 4006 from 5 at 408
2019/08/05 09:23:11 (-480) - v1.2 - Error code 4006 from 5 at 408
2019/08/05 09:23:13 (-480) - v1.2 - Error code 4006 from 5 at 408
2019/08/05 09:23:16 (-480) - v1.2 - Error code 4006 from 5 at 408
2019/08/05 09:23:18 (-480) - v1.2 - Error code 4006 from 5 at 408
2019/08/05 09:23:20 (-480) - v1.2 - Error code 4006 from 5 at 408
2019/08/05 09:23:23 (-480) - v1.2 - Software reset (1)
2019/08/05 09:23:23 (-480) - v1.2 - Battery at Boot: 3772 mV, 27%
2019/08/05 09:23:26 (-480) - v1.2 - Error code 4006 from 5 at 408
2019/08/05 09:23:28 (-480) - v1.2 - Error code 4006 from 5 at 408
2019/08/05 09:23:30 (-480) - v1.2 - Error code 4006 from 5 at 408
2019/08/05 09:23:32 (-480) - v1.2 - Error code 4006 from 5 at 408
2019/08/05 09:23:34 (-480) - v1.2 - Error code 4006 from 5 at 408
2019/08/05 09:23:36 (-480) - v1.2 - Error code 4006 from 5 at 408
2019/08/05 09:47:39 (-480) - v1.2 - Device Booting (0)
2019/08/05 09:47:39 (-480) - v1.2 - Battery at Boot: 3769 mV, 26%
2019/08/05 09:47:41 (-480) - v1.2 - Error code 4006 from 5 at 408
2019/08/05 09:47:43 (-480) - v1.2 - Error code 4006 from 5 at 408
2019/08/05 09:47:45 (-480) - v1.2 - Error code 4006 from 5 at 408
2019/08/05 09:47:48 (-480) - v1.2 - Error code 4006 from 5 at 408
2019/08/05 09:47:50 (-480) - v1.2 - Error code 4006 from 5 at 408
2019/08/05 09:47:52 (-480) - v1.2 - Error code 4006 from 5 at 408
2019/08/05 09:47:55 (-480) - v1.2 - Software reset (1)
2019/08/05 09:47:55 (-480) - v1.2 - Battery at Boot: 3769 mV, 26%
2019/08/05 09:47:58 (-480) - v1.2 - Error code 4006 from 5 at 408
2019/08/05 09:48:00 (-480) - v1.2 - Error code 4006 from 5 at 408
2019/08/05 09:48:02 (-480) - v1.2 - Error code 4006 from 5 at 408
2019/08/05 09:48:04 (-480) - v1.2 - Error code 4006 from 5 at 408
2019/08/05 09:48:08 (-480) - v1.2 - Error code 4006 from 5 at 578
2019/08/05 09:48:10 (-480) - v1.2 - Error code 4006 from 5 at 408
2019/08/05 09:48:26 (-480) - v1.2 - Device Booting (0)
2019/08/05 09:48:26 (-480) - v1.2 - Battery at Boot: 3769 mV, 26%
2019/02/05 09:48:26 (32767) - v1.2 - Battery at Boot: 3769 mV, 26%
2019/08/05 09:48:26 (32767) - v1.2 - Battery at Boot: 3769 mV, 26%
0/00/00 00:00:00 (0) - v1.2 - User reset (0)
0/00/00 00:00:00 (0) - v1.2 - Battery at Boot: 3679 mV, 6%