{
  "format": "TZSET",
  "deviceType": "HPR  ",
  "firmwareVersion": 1.7,
  "deviceSerial": "",
  "fileId": 0,
  "checkSettingRanges": true,
  "settings": {
    "brady_bpm": {
      "data": 40
    },
    "tachy_bpm": {
      "data": 120
    },
    "pause_duration": {
      "data": 3000
    },
    "tachy_rate_change": {
      "data": 10
    },
    "brady_rate_change": {
      "data": 5
    },
    "arrhythmia_min_duration": {
      "data": 15
    },
    "af_rate_change": {
      "data": 10
    },
    "detect_pacemaker": {
      "data": false
    },
    "summarize_qrs_detection": {
      "data": 0
    },
    "pedometer_period": {
      "data": 0
    },
    "store_raw_accel": {
      "data": false
    },
    "report_battery_temperature": {
      "data": true
    },
    "length_is_calendar_days": {
      "data": false
    },
    "one_ecg_file": {
      "data": false
    },
    "study_hours": {
      "data": 1464
    },
    "sample_rate": {
      "data": 800
    },
    "report_pre_time": {
      "data": 30
    },
    "report_post_time": {
      "data": 30
    },
    "digital_hp_filter": {
      "data": 5
    },
    "digital_lp_filter": {
      "data": 40
    },
    "digital_notch_filter": {
      "data": 60
    },
    "min_time_between_events": {
      "data": 30
    },
    "suppress_rhythm_events": {
      "data": "np"
    },
    "patient_event_pre_time": {
      "data": 30
    },
    "patient_event_post_time": {
      "data": 30
    },
    "nag_on_replace_electrode": {
      "data": 1
    },
    "nag_on_low_battery": {
      "data": 0
    },
    "electrode_max_wear_hours": {
      "data": 168
    },
    "allow_low_battery_start": {
      "data": true
    },
    "study_complete_sleep": {
      "data": 0
    },
    "nag_on_lead_off": {
      "data": 0
    },
    "bulk_upload": {
      "data": true
    },
    "transmit_interval_reports": {
      "data": true
    },
    "demo_mode": {
      "data": 0
    },
    "patient_id": {
      "data": "HPR MCT Input JSON Test"
    },
    "server_address": {
      "data": "devices.bitrhythm.io"
    },
    "tls_identity": {
      "data": "use_ecdsa"
    },
    "tls_psk": {
      "data": ""
    },
    "wifi_ssid": {
      "data": ""
    },
    "wifi_password": {
      "data": ""
    },
    "http_bearer_token": {
      "data": ""
    },
    "connection_timeout": {
      "data": 5
    },
    "bad_tag": {
      "data": false
    },
    "error_retries": {
      "data": 5
    },
    "error_period": {
      "data": 30
    },
    "zymed_compat": {
      "data": 1
    }
  }
}
