{
  "format": "TZSET",
  "crc": 64382,
  "deviceType": "HPR  ",
  "firmwareVersion": 1.7,
  "deviceSerial": "",
  "fileId": 0,
  "checkSettingRanges": true,
  "settings": {
    "detect_pacemaker": { "data": false },
    "pedometer_period": { "data": 10 },
    "store_raw_accel": { "data": false },
    "report_battery_temperature": { "data": false },
    "length_is_calendar_days": { "data": false },
    "study_hours": { "data": 1464 },
    "sample_rate": { "data": 200 },
    "digital_hp_filter": { "data": 5 },
    "digital_lp_filter": { "data": 40 },
    "digital_notch_filter": { "data": 60 },
    "nag_on_replace_electrode": { "data": 0 },
    "nag_on_low_battery": { "data": 0 },
    "electrode_max_wear_hours": { "data": 168 },
    "allow_low_battery_start": { "data": false },
    "study_complete_sleep": { "data": 0 },
    "nag_on_lead_off": { "data": 0 },
    "demo_mode": { "data": 0 },
    "patient_id": { "data": "HPR Output JSON Test" },
    "server_address": { "data": "devices.bitrhythm.io" },
    "tls_identity": { "data": "use_ecdsa" },
    "tls_psk": { "data": "" },
    "http_bearer_token": { "data": "" },
    "connection_timeout": { "data": 5 },
    "error_retries": { "data": 5 },
    "error_period": { "data": 30 },
    "zymed_compat": { "data": 0 }
  }
}
