CRC Valid: 0x73a6
Format Identifier String: TZINT
Device Identifier String: HPR  
Firmware Version: 1.2
Serial Number: HPR1401148
Patient ID: Fourteen_Day
hpr_dir/11.tzr [000000, 000000] 2019/07/30 11:33:42.000 {-480} - ECG Recording Started: 0
hpr_dir/11.tzr [000000, 000600] 2019/07/30 11:33:42.000 {-480} - Electrodes Disconnected: Mask=0x3
hpr_dir/11.tzr [000000, 000900] 2019/07/30 11:33:42.000 {-480} - Electrodes Disconnected: Mask=0x3
hpr_dir/11.tzr [000000, 001500] 2019/07/30 11:33:42.000 {-480} - Electrodes Disconnected: Mask=0x3
hpr_dir/11.tzr [000000, 001800] 2019/07/30 11:33:42.000 {-480} - Electrodes Disconnected: Mask=0x3
hpr_dir/11.tzr [000000, 002400] 2019/07/30 11:33:42.000 {-480} - Electrodes Disconnected: Mask=0x3
hpr_dir/11.tzr [000000, 002700] 2019/07/30 11:33:42.000 {-480} - Electrodes Disconnected: Mask=0x3
hpr_dir/11.tzr [000000, 003000] 2019/07/30 11:33:42.000 {-480} - Electrodes Disconnected: Mask=0x3
hpr_dir/11.tzr [000000, 003300] 2019/07/30 11:33:42.000 {-480} - Electrodes Disconnected: Mask=0x3
hpr_dir/11.tzr [000000, 003600] 2019/07/30 11:33:42.000 {-480} - Electrodes Disconnected: Mask=0x3
hpr_dir/11.tzr [000000, 003900] 2019/07/30 11:33:42.000 {-480} - Electrodes Disconnected: Mask=0x3
hpr_dir/11.tzr [000000, 004200] 2019/07/30 11:33:42.000 {-480} - Electrodes Disconnected: Mask=0x3
hpr_dir/11.tzr [000000, 005100] 2019/07/30 11:33:42.000 {-480} - Electrodes Disconnected: Mask=0x3
hpr_dir/11.tzr [000000, 005400] 2019/07/30 11:33:42.000 {-480} - Electrodes Disconnected: Mask=0x3
hpr_dir/11.tzr [000000, 006000] 2019/07/30 11:33:42.000 {-480} - Electrodes Disconnected: Mask=0x3
hpr_dir/11.tzr [000000, 006900] 2019/07/30 11:33:42.000 {-480} - Electrodes Disconnected: Mask=0x3
hpr_dir/11.tzr [000000, 007500] 2019/07/30 11:33:42.000 {-480} - Electrodes Disconnected: Mask=0x3
hpr_dir/11.tzr [000000, 008100] 2019/07/30 11:33:42.000 {-480} - Electrodes Disconnected: Mask=0x3
hpr_dir/11.tzr [000000, 009000] 2019/07/30 11:33:42.000 {-480} - Electrodes Disconnected: Mask=0x0
hpr_dir/11.tzr [000000, 000000] 2019/07/30 11:35:25.000 {-480} - ECG Recording Interrupted: 100
hpr_dir/11.tzr [000001, 000000] 2019/07/30 11:35:25.000 {-480} - ECG Recording Resumed: 0
hpr_dir/11.tzr [000001, 000600] 2019/07/30 11:35:25.000 {-480} - Electrodes Disconnected: Mask=0x3
hpr_dir/11.tzr [000001, 001200] 2019/07/30 11:35:25.000 {-480} - Electrodes Disconnected: Mask=0x3
hpr_dir/11.tzr [000001, 001500] 2019/07/30 11:35:25.000 {-480} - Electrodes Disconnected: Mask=0x3
hpr_dir/11.tzr [000001, 001800] 2019/07/30 11:35:25.000 {-480} - Electrodes Disconnected: Mask=0x3
hpr_dir/11.tzr [000001, 002700] 2019/07/30 11:35:25.000 {-480} - Electrodes Disconnected: Mask=0x3
hpr_dir/11.tzr [000001, 003000] 2019/07/30 11:35:25.000 {-480} - Electrodes Disconnected: Mask=0x3
hpr_dir/11.tzr [000001, 003900] 2019/07/30 11:35:25.000 {-480} - Electrodes Disconnected: Mask=0x3
hpr_dir/11.tzr [000001, 004800] 2019/07/30 11:35:25.000 {-480} - Electrodes Disconnected: Mask=0x3
hpr_dir/11.tzr [000001, 006300] 2019/07/30 11:35:25.000 {-480} - Electrodes Disconnected: Mask=0x3
hpr_dir/11.tzr [000001, 006600] 2019/07/30 11:35:25.000 {-480} - Electrodes Disconnected: Mask=0x0
hpr_dir/11.tzr [000001, 007800] 2019/07/30 11:35:25.000 {-480} - Electrodes Disconnected: Mask=0x3
hpr_dir/11.tzr [000001, 008100] 2019/07/30 11:35:25.000 {-480} - Electrodes Disconnected: Mask=0x3
hpr_dir/11.tzr [000001, 008400] 2019/07/30 11:35:25.000 {-480} - Electrodes Disconnected: Mask=0x3
hpr_dir/11.tzr [000002, 000300] 2019/07/30 11:36:13.000 {-480} - Electrodes Disconnected: Mask=0x3
hpr_dir/11.tzr [000002, 000900] 2019/07/30 11:36:13.000 {-480} - Electrodes Disconnected: Mask=0x3
hpr_dir/11.tzr [000002, 002100] 2019/07/30 11:36:13.000 {-480} - Electrodes Disconnected: Mask=0x3
hpr_dir/11.tzr [000002, 002400] 2019/07/30 11:36:13.000 {-480} - Electrodes Disconnected: Mask=0x3
hpr_dir/11.tzr [000002, 005100] 2019/07/30 11:36:13.000 {-480} - Electrodes Disconnected: Mask=0x3
hpr_dir/11.tzr [000002, 006000] 2019/07/30 11:36:13.000 {-480} - Electrodes Disconnected: Mask=0x3
hpr_dir/11.tzr [000002, 006300] 2019/07/30 11:36:13.000 {-480} - Electrodes Disconnected: Mask=0x3
hpr_dir/11.tzr [000002, 006900] 2019/07/30 11:36:13.000 {-480} - Electrodes Disconnected: Mask=0x3
hpr_dir/11.tzr [000002, 008400] 2019/07/30 11:36:13.000 {-480} - Electrodes Disconnected: Mask=0x0
hpr_dir/11.tzr [000002, 008844] 2019/07/30 11:36:56.000 {-480} - Pedometer Steps: 14
hpr_dir/11.tzr [000002, 008698] 2019/07/30 11:36:13.000 {-480} - Electrodes Disconnected: Mask=0x2
hpr_dir/11.tzr [000002, 009298] 2019/07/30 11:36:13.000 {-480} - Electrodes Disconnected: Mask=0x0
hpr_dir/11.tzr [000002, 009598] 2019/07/30 11:36:13.000 {-480} - Electrodes Disconnected: Mask=0x2
hpr_dir/11.tzr [000002, 000000] 2019/07/30 11:37:39.000 {-480} - ECG Recording Interrupted: 100
hpr_dir/11.tzr [000003, 000000] 2019/07/30 11:37:39.000 {-480} - ECG Recording Resumed: 0
hpr_dir/11.tzr [000003, 000300] 2019/07/30 11:37:39.000 {-480} - Electrodes Disconnected: Mask=0x3
hpr_dir/11.tzr [000003, 001200] 2019/07/30 11:37:39.000 {-480} - Electrodes Disconnected: Mask=0x2
hpr_dir/11.tzr [000003, 001500] 2019/07/30 11:37:39.000 {-480} - Electrodes Disconnected: Mask=0x0
hpr_dir/11.tzr [000003, 001800] 2019/07/30 11:37:39.000 {-480} - Electrodes Disconnected: Mask=0x2
hpr_dir/11.tzr [000003, 003600] 2019/07/30 11:37:39.000 {-480} - Electrodes Disconnected: Mask=0x0
hpr_dir/11.tzr [000003, 004500] 2019/07/30 11:37:39.000 {-480} - Electrodes Disconnected: Mask=0x2
hpr_dir/11.tzr [000003, 004800] 2019/07/30 11:37:39.000 {-480} - Electrodes Disconnected: Mask=0x2
hpr_dir/11.tzr [000003, 005100] 2019/07/30 11:37:39.000 {-480} - Electrodes Disconnected: Mask=0x2
hpr_dir/11.tzr [000003, 005400] 2019/07/30 11:37:39.000 {-480} - Electrodes Disconnected: Mask=0x3
hpr_dir/11.tzr [000003, 006000] 2019/07/30 11:37:39.000 {-480} - Electrodes Disconnected: Mask=0x3
hpr_dir/11.tzr [000003, 006600] 2019/07/30 11:37:39.000 {-480} - Electrodes Disconnected: Mask=0x3
hpr_dir/11.tzr [000004, 000300] 2019/07/30 11:38:24.000 {-480} - Electrodes Disconnected: Mask=0x3
hpr_dir/11.tzr [000004, 000600] 2019/07/30 11:38:24.000 {-480} - Electrodes Disconnected: Mask=0x3
hpr_dir/11.tzr [000004, 003390] 2019/07/30 11:38:39.000 {-480} - Pedometer Steps: 11
hpr_dir/11.tzr [000004, 003598] 2019/07/30 11:38:24.000 {-480} - Electrodes Disconnected: Mask=0x3
hpr_dir/11.tzr [000004, 004798] 2019/07/30 11:38:24.000 {-480} - Electrodes Disconnected: Mask=0x3
hpr_dir/11.tzr [000004, 005098] 2019/07/30 11:38:24.000 {-480} - Electrodes Disconnected: Mask=0x0
hpr_dir/11.tzr [000004, 005398] 2019/07/30 11:38:24.000 {-480} - Electrodes Disconnected: Mask=0x2
hpr_dir/11.tzr [000004, 005698] 2019/07/30 11:38:24.000 {-480} - Electrodes Disconnected: Mask=0x0
hpr_dir/11.tzr [000004, 005998] 2019/07/30 11:38:24.000 {-480} - Electrodes Disconnected: Mask=0x2
hpr_dir/11.tzr [000004, 006898] 2019/07/30 11:38:24.000 {-480} - Electrodes Disconnected: Mask=0x0
hpr_dir/11.tzr [000004, 007198] 2019/07/30 11:38:24.000 {-480} - Electrodes Disconnected: Mask=0x2
hpr_dir/11.tzr [000004, 007498] 2019/07/30 11:38:24.000 {-480} - Electrodes Disconnected: Mask=0x2
hpr_dir/11.tzr [000004, 007798] 2019/07/30 11:38:24.000 {-480} - Electrodes Disconnected: Mask=0x3
hpr_dir/11.tzr [000004, 008098] 2019/07/30 11:38:24.000 {-480} - Electrodes Disconnected: Mask=0x2
hpr_dir/11.tzr [000004, 008998] 2019/07/30 11:38:24.000 {-480} - Electrodes Disconnected: Mask=0x3
hpr_dir/11.tzr [000004, 009298] 2019/07/30 11:38:24.000 {-480} - Electrodes Disconnected: Mask=0x0
hpr_dir/11.tzr [000004, 009598] 2019/07/30 11:38:24.000 {-480} - Electrodes Disconnected: Mask=0x3
hpr_dir/11.tzr [000005, 000300] 2019/07/30 11:39:14.000 {-480} - Electrodes Disconnected: Mask=0x3
hpr_dir/11.tzr [000005, 000600] 2019/07/30 11:39:14.000 {-480} - Electrodes Disconnected: Mask=0x3
hpr_dir/11.tzr [000005, 001200] 2019/07/30 11:39:14.000 {-480} - Electrodes Disconnected: Mask=0x3
hpr_dir/11.tzr [000005, 001500] 2019/07/30 11:39:14.000 {-480} - Electrodes Disconnected: Mask=0x3
hpr_dir/11.tzr [000005, 002700] 2019/07/30 11:39:14.000 {-480} - Electrodes Disconnected: Mask=0x3
hpr_dir/11.tzr [000005, 003000] 2019/07/30 11:39:14.000 {-480} - Electrodes Disconnected: Mask=0x3
hpr_dir/11.tzr [000005, 003900] 2019/07/30 11:39:14.000 {-480} - Electrodes Disconnected: Mask=0x0
hpr_dir/11.tzr [000005, 004200] 2019/07/30 11:39:14.000 {-480} - Electrodes Disconnected: Mask=0x3
hpr_dir/11.tzr [000005, 004800] 2019/07/30 11:39:14.000 {-480} - Electrodes Disconnected: Mask=0x3
hpr_dir/11.tzr [000005, 005100] 2019/07/30 11:39:14.000 {-480} - Electrodes Disconnected: Mask=0x3
hpr_dir/11.tzr [000005, 009600] 2019/07/30 11:39:14.000 {-480} - Electrodes Disconnected: Mask=0x3
hpr_dir/11.tzr [000006, 000300] 2019/07/30 11:40:03.000 {-480} - Electrodes Disconnected: Mask=0x3
hpr_dir/11.tzr [000006, 000600] 2019/07/30 11:40:03.000 {-480} - Electrodes Disconnected: Mask=0x2
hpr_dir/11.tzr [000006, 001200] 2019/07/30 11:40:03.000 {-480} - Electrodes Disconnected: Mask=0x3
hpr_dir/11.tzr [000006, 003900] 2019/07/30 11:40:03.000 {-480} - Electrodes Disconnected: Mask=0x0
hpr_dir/11.tzr [000006, 004200] 2019/07/30 11:40:03.000 {-480} - Electrodes Disconnected: Mask=0x2
hpr_dir/11.tzr [000006, 004500] 2019/07/30 11:40:03.000 {-480} - Electrodes Disconnected: Mask=0x2
hpr_dir/11.tzr [000006, 004800] 2019/07/30 11:40:03.000 {-480} - Electrodes Disconnected: Mask=0x2
hpr_dir/11.tzr [000006, 005100] 2019/07/30 11:40:03.000 {-480} - Electrodes Disconnected: Mask=0x2
hpr_dir/11.tzr [000006, 005400] 2019/07/30 11:40:03.000 {-480} - Electrodes Disconnected: Mask=0x2
hpr_dir/11.tzr [000006, 008400] 2019/07/30 11:40:03.000 {-480} - Electrodes Disconnected: Mask=0x0
hpr_dir/11.tzr [000006, 008700] 2019/07/30 11:40:03.000 {-480} - Electrodes Disconnected: Mask=0x2
hpr_dir/11.tzr [000006, 009000] 2019/07/30 11:40:03.000 {-480} - Electrodes Disconnected: Mask=0x2
hpr_dir/11.tzr [000007, 000300] 2019/07/30 11:40:51.000 {-480} - Electrodes Disconnected: Mask=0x2
hpr_dir/11.tzr [000007, 000600] 2019/07/30 11:40:51.000 {-480} - Electrodes Disconnected: Mask=0x2
hpr_dir/11.tzr [000007, 001800] 2019/07/30 11:40:51.000 {-480} - Electrodes Disconnected: Mask=0x2
hpr_dir/11.tzr [000007, 002100] 2019/07/30 11:40:51.000 {-480} - Electrodes Disconnected: Mask=0x2
hpr_dir/11.tzr [000007, 002400] 2019/07/30 11:40:51.000 {-480} - Electrodes Disconnected: Mask=0x0
hpr_dir/11.tzr [000007, 002700] 2019/07/30 11:40:51.000 {-480} - Electrodes Disconnected: Mask=0x2
hpr_dir/11.tzr [000007, 003000] 2019/07/30 11:40:51.000 {-480} - Electrodes Disconnected: Mask=0x0
hpr_dir/11.tzr [000007, 003300] 2019/07/30 11:40:51.000 {-480} - Electrodes Disconnected: Mask=0x3
hpr_dir/11.tzr [000007, 003600] 2019/07/30 11:40:51.000 {-480} - Electrodes Disconnected: Mask=0x0
hpr_dir/11.tzr [000007, 004800] 2019/07/30 11:40:51.000 {-480} - Electrodes Disconnected: Mask=0x0
hpr_dir/11.tzr [000007, 005400] 2019/07/30 11:40:51.000 {-480} - Electrodes Disconnected: Mask=0x3
hpr_dir/11.tzr [000007, 006000] 2019/07/30 11:40:51.000 {-480} - Electrodes Disconnected: Mask=0x3
hpr_dir/11.tzr [000007, 006300] 2019/07/30 11:40:51.000 {-480} - Electrodes Disconnected: Mask=0x3
hpr_dir/11.tzr [000007, 007200] 2019/07/30 11:40:51.000 {-480} - Electrodes Disconnected: Mask=0x3
hpr_dir/11.tzr [000007, 008700] 2019/07/30 11:40:51.000 {-480} - Electrodes Disconnected: Mask=0x3
hpr_dir/11.tzr [000008, 000300] 2019/07/30 11:41:41.000 {-480} - Electrodes Disconnected: Mask=0x3
hpr_dir/11.tzr [000008, 000600] 2019/07/30 11:41:41.000 {-480} - Electrodes Disconnected: Mask=0x3
hpr_dir/11.tzr [000008, 006900] 2019/07/30 11:41:41.000 {-480} - Electrodes Disconnected: Mask=0x3
hpr_dir/11.tzr [000008, 007800] 2019/07/30 11:41:41.000 {-480} - Electrodes Disconnected: Mask=0x3
hpr_dir/11.tzr [000008, 008100] 2019/07/30 11:41:41.000 {-480} - Electrodes Disconnected: Mask=0x0
hpr_dir/11.tzr [000008, 008400] 2019/07/30 11:41:41.000 {-480} - Electrodes Disconnected: Mask=0x2
hpr_dir/11.tzr [000008, 008700] 2019/07/30 11:41:41.000 {-480} - Electrodes Disconnected: Mask=0x0
hpr_dir/11.tzr [000008, 009000] 2019/07/30 11:41:41.000 {-480} - Electrodes Disconnected: Mask=0x2
hpr_dir/11.tzr [000008, 009300] 2019/07/30 11:41:41.000 {-480} - Electrodes Disconnected: Mask=0x2
hpr_dir/11.tzr [000008, 009900] 2019/07/30 11:41:41.000 {-480} - Electrodes Disconnected: Mask=0x2
hpr_dir/11.tzr [000009, 000600] 2019/07/30 11:42:30.000 {-480} - Electrodes Disconnected: Mask=0x2
hpr_dir/11.tzr [000009, 001200] 2019/07/30 11:42:30.000 {-480} - Electrodes Disconnected: Mask=0x3
hpr_dir/11.tzr [000009, 002903] 2019/07/30 11:42:43.000 {-480} - Battery Voltage: 4171 mV
hpr_dir/11.tzr [000009, 002903] 2019/07/30 11:42:43.000 {-480} - Battery Percent Charge: 99.7891%
hpr_dir/11.tzr [000009, 003296] 2019/07/30 11:42:30.000 {-480} - Electrodes Disconnected: Mask=0x3
hpr_dir/11.tzr [000009, 003596] 2019/07/30 11:42:30.000 {-480} - Electrodes Disconnected: Mask=0x3
hpr_dir/11.tzr [000009, 008651] 2019/07/30 11:43:12.000 {-480} - Pedometer Steps: 12
hpr_dir/11.tzr [000009, 008394] 2019/07/30 11:42:30.000 {-480} - Electrodes Disconnected: Mask=0x3
hpr_dir/11.tzr [000009, 008694] 2019/07/30 11:42:30.000 {-480} - Electrodes Disconnected: Mask=0x3
hpr_dir/11.tzr [000010, 000300] 2019/07/30 11:43:20.000 {-480} - Electrodes Disconnected: Mask=0x3
hpr_dir/11.tzr [000010, 000600] 2019/07/30 11:43:20.000 {-480} - Electrodes Disconnected: Mask=0x3
hpr_dir/11.tzr [000010, 003000] 2019/07/30 11:43:20.000 {-480} - Electrodes Disconnected: Mask=0x3
hpr_dir/11.tzr [000010, 003300] 2019/07/30 11:43:20.000 {-480} - Electrodes Disconnected: Mask=0x3
hpr_dir/11.tzr [000010, 004500] 2019/07/30 11:43:20.000 {-480} - Electrodes Disconnected: Mask=0x3
hpr_dir/11.tzr [000010, 004815] 2019/07/30 11:43:42.000 {-480} - Pedometer Steps: 5
hpr_dir/11.tzr [000010, 005998] 2019/07/30 11:43:20.000 {-480} - Electrodes Disconnected: Mask=0x3
hpr_dir/11.tzr [000011, 000300] 2019/07/30 11:44:09.000 {-480} - Electrodes Disconnected: Mask=0x3
hpr_dir/11.tzr [000011, 000600] 2019/07/30 11:44:09.000 {-480} - Electrodes Disconnected: Mask=0x3
hpr_dir/11.tzr [000011, 005400] 2019/07/30 11:44:09.000 {-480} - Electrodes Disconnected: Mask=0x3
hpr_dir/11.tzr [000011, 005700] 2019/07/30 11:44:09.000 {-480} - Electrodes Disconnected: Mask=0x3
hpr_dir/11.tzr [000011, 006000] 2019/07/30 11:44:09.000 {-480} - Electrodes Disconnected: Mask=0x3
hpr_dir/11.tzr [000011, 006300] 2019/07/30 11:44:09.000 {-480} - Electrodes Disconnected: Mask=0x3
hpr_dir/11.tzr [000011, 008100] 2019/07/30 11:44:09.000 {-480} - Electrodes Disconnected: Mask=0x3
hpr_dir/11.tzr [000011, 008400] 2019/07/30 11:44:09.000 {-480} - Electrodes Disconnected: Mask=0x3
hpr_dir/11.tzr [000012, 000300] 2019/07/30 11:45:00.000 {-480} - Electrodes Disconnected: Mask=0x3
hpr_dir/11.tzr [000012, 000600] 2019/07/30 11:45:00.000 {-480} - Electrodes Disconnected: Mask=0x3
hpr_dir/11.tzr [000013, 000300] 2019/07/30 11:45:51.000 {-480} - Electrodes Disconnected: Mask=0x3
hpr_dir/11.tzr [000013, 000600] 2019/07/30 11:45:51.000 {-480} - Electrodes Disconnected: Mask=0x3
hpr_dir/11.tzr [000013, 002400] 2019/07/30 11:45:51.000 {-480} - Electrodes Disconnected: Mask=0x3
hpr_dir/11.tzr [000013, 004200] 2019/07/30 11:45:51.000 {-480} - Electrodes Disconnected: Mask=0x3
hpr_dir/11.tzr [000013, 004500] 2019/07/30 11:45:51.000 {-480} - Electrodes Disconnected: Mask=0x0
hpr_dir/11.tzr [000013, 004800] 2019/07/30 11:45:51.000 {-480} - Electrodes Disconnected: Mask=0x0
hpr_dir/11.tzr [000013, 005100] 2019/07/30 11:45:51.000 {-480} - Electrodes Disconnected: Mask=0x0
hpr_dir/11.tzr [000013, 005400] 2019/07/30 11:45:51.000 {-480} - Electrodes Disconnected: Mask=0x3
hpr_dir/11.tzr [000014, 000300] 2019/07/30 11:46:41.000 {-480} - Electrodes Disconnected: Mask=0x3
hpr_dir/11.tzr [000014, 000600] 2019/07/30 11:46:41.000 {-480} - Electrodes Disconnected: Mask=0x3
hpr_dir/11.tzr [000015, 000300] 2019/07/30 11:47:32.000 {-480} - Electrodes Disconnected: Mask=0x3
hpr_dir/11.tzr [000015, 000900] 2019/07/30 11:47:32.000 {-480} - Electrodes Disconnected: Mask=0x3
hpr_dir/11.tzr [000015, 001500] 2019/07/30 11:47:32.000 {-480} - Electrodes Disconnected: Mask=0x3
hpr_dir/11.tzr [000015, 001800] 2019/07/30 11:47:32.000 {-480} - Electrodes Disconnected: Mask=0x3
hpr_dir/11.tzr [000015, 002852] 2019/07/30 11:47:44.000 {-480} - Pedometer Steps: 4
hpr_dir/11.tzr [000015, 003677] 2019/07/30 11:47:48.000 {-480} - Battery Voltage: 4171 mV
hpr_dir/11.tzr [000015, 003677] 2019/07/30 11:47:48.000 {-480} - Battery Percent Charge: 99.7305%
hpr_dir/11.tzr [000015, 008909] 2019/07/30 11:48:15.000 {-480} - Pedometer Steps: 27
hpr_dir/11.tzr [000016, 000300] 2019/07/30 11:48:23.000 {-480} - Electrodes Disconnected: Mask=0x3
hpr_dir/11.tzr [000016, 000600] 2019/07/30 11:48:23.000 {-480} - Electrodes Disconnected: Mask=0x3
hpr_dir/11.tzr [000016, 003600] 2019/07/30 11:48:23.000 {-480} - Electrodes Disconnected: Mask=0x3
hpr_dir/11.tzr [000016, 004200] 2019/07/30 11:48:23.000 {-480} - Electrodes Disconnected: Mask=0x3
hpr_dir/11.tzr [000016, 004769] 2019/07/30 11:48:45.000 {-480} - Pedometer Steps: 20
hpr_dir/11.tzr [000016, 004498] 2019/07/30 11:48:23.000 {-480} - Electrodes Disconnected: Mask=0x0
hpr_dir/11.tzr [000016, 005698] 2019/07/30 11:48:23.000 {-480} - Electrodes Disconnected: Mask=0x3
hpr_dir/11.tzr [000016, 005998] 2019/07/30 11:48:23.000 {-480} - Electrodes Disconnected: Mask=0x0
hpr_dir/11.tzr [000016, 006298] 2019/07/30 11:48:23.000 {-480} - Electrodes Disconnected: Mask=0x0
hpr_dir/11.tzr [000016, 006598] 2019/07/30 11:48:23.000 {-480} - Electrodes Disconnected: Mask=0x0
hpr_dir/11.tzr [000016, 007198] 2019/07/30 11:48:23.000 {-480} - Electrodes Disconnected: Mask=0x0
hpr_dir/11.tzr [000016, 007498] 2019/07/30 11:48:23.000 {-480} - Electrodes Disconnected: Mask=0x2
hpr_dir/11.tzr [000016, 008398] 2019/07/30 11:48:23.000 {-480} - Electrodes Disconnected: Mask=0x0
hpr_dir/11.tzr [000016, 008698] 2019/07/30 11:48:23.000 {-480} - Electrodes Disconnected: Mask=0x0
hpr_dir/11.tzr [000016, 009298] 2019/07/30 11:48:23.000 {-480} - Electrodes Disconnected: Mask=0x0
hpr_dir/11.tzr [000017, 000900] 2019/07/30 11:49:12.000 {-480} - Electrodes Disconnected: Mask=0x2
hpr_dir/11.tzr [000017, 001200] 2019/07/30 11:49:12.000 {-480} - Electrodes Disconnected: Mask=0x2
hpr_dir/11.tzr [000017, 001500] 2019/07/30 11:49:12.000 {-480} - Electrodes Disconnected: Mask=0x3
hpr_dir/11.tzr [000017, 004500] 2019/07/30 11:49:12.000 {-480} - Electrodes Disconnected: Mask=0x3
hpr_dir/11.tzr [000017, 004800] 2019/07/30 11:49:12.000 {-480} - Electrodes Disconnected: Mask=0x3
hpr_dir/11.tzr [000017, 010200] 2019/07/30 11:49:12.000 {-480} - Electrodes Disconnected: Mask=0x3
hpr_dir/11.tzr [000018, 000300] 2019/07/30 11:50:03.000 {-480} - Electrodes Disconnected: Mask=0x3
hpr_dir/11.tzr [000018, 000600] 2019/07/30 11:50:03.000 {-480} - Electrodes Disconnected: Mask=0x0
hpr_dir/11.tzr [000018, 001200] 2019/07/30 11:50:03.000 {-480} - Electrodes Disconnected: Mask=0x3
hpr_dir/11.tzr [000019, 000300] 2019/07/30 11:50:54.000 {-480} - Electrodes Disconnected: Mask=0x3
hpr_dir/11.tzr [000019, 000600] 2019/07/30 11:50:54.000 {-480} - Electrodes Disconnected: Mask=0x3
hpr_dir/11.tzr [000019, 001200] 2019/07/30 11:50:54.000 {-480} - Electrodes Disconnected: Mask=0x0
hpr_dir/11.tzr [000019, 001500] 2019/07/30 11:50:54.000 {-480} - Electrodes Disconnected: Mask=0x2
hpr_dir/11.tzr [000019, 002100] 2019/07/30 11:50:54.000 {-480} - Electrodes Disconnected: Mask=0x2
hpr_dir/11.tzr [000019, 002400] 2019/07/30 11:50:54.000 {-480} - Electrodes Disconnected: Mask=0x2
hpr_dir/11.tzr [000019, 003600] 2019/07/30 11:50:54.000 {-480} - Electrodes Disconnected: Mask=0x3
hpr_dir/11.tzr [000019, 005400] 2019/07/30 11:50:54.000 {-480} - Electrodes Disconnected: Mask=0x0
hpr_dir/11.tzr [000019, 005700] 2019/07/30 11:50:54.000 {-480} - Electrodes Disconnected: Mask=0x2
hpr_dir/11.tzr [000019, 006000] 2019/07/30 11:50:54.000 {-480} - Electrodes Disconnected: Mask=0x2
hpr_dir/11.tzr [000019, 006300] 2019/07/30 11:50:54.000 {-480} - Electrodes Disconnected: Mask=0x2
hpr_dir/11.tzr [000019, 006600] 2019/07/30 11:50:54.000 {-480} - Electrodes Disconnected: Mask=0x2
hpr_dir/11.tzr [000019, 007500] 2019/07/30 11:50:54.000 {-480} - Electrodes Disconnected: Mask=0x2
hpr_dir/11.tzr [000019, 007800] 2019/07/30 11:50:54.000 {-480} - Electrodes Disconnected: Mask=0x2
hpr_dir/11.tzr [000019, 008700] 2019/07/30 11:50:54.000 {-480} - Electrodes Disconnected: Mask=0x3
hpr_dir/11.tzr [000020, 000300] 2019/07/30 11:51:42.000 {-480} - Electrodes Disconnected: Mask=0x3
hpr_dir/11.tzr [000020, 000600] 2019/07/30 11:51:42.000 {-480} - Electrodes Disconnected: Mask=0x3
hpr_dir/11.tzr [000020, 010200] 2019/07/30 11:51:42.000 {-480} - Electrodes Disconnected: Mask=0x3
hpr_dir/11.tzr [000021, 000600] 2019/07/30 11:52:33.000 {-480} - Electrodes Disconnected: Mask=0x3
hpr_dir/11.tzr [000021, 004428] 2019/07/30 11:52:54.000 {-480} - Battery Voltage: 4170 mV
hpr_dir/11.tzr [000021, 004428] 2019/07/30 11:52:54.000 {-480} - Battery Percent Charge: 99.6328%
hpr_dir/11.tzr [000022, 000300] 2019/07/30 11:53:24.000 {-480} - Electrodes Disconnected: Mask=0x3
hpr_dir/11.tzr [000022, 000600] 2019/07/30 11:53:24.000 {-480} - Electrodes Disconnected: Mask=0x3
hpr_dir/11.tzr [000023, 000300] 2019/07/30 11:54:15.000 {-480} - Electrodes Disconnected: Mask=0x3
hpr_dir/11.tzr [000023, 000600] 2019/07/30 11:54:15.000 {-480} - Electrodes Disconnected: Mask=0x3
hpr_dir/11.tzr [000024, 000300] 2019/07/30 11:55:06.000 {-480} - Electrodes Disconnected: Mask=0x3
hpr_dir/11.tzr [000024, 000600] 2019/07/30 11:55:06.000 {-480} - Electrodes Disconnected: Mask=0x3
hpr_dir/11.tzr [000025, 000300] 2019/07/30 11:55:57.000 {-480} - Electrodes Disconnected: Mask=0x3
hpr_dir/11.tzr [000025, 000600] 2019/07/30 11:55:57.000 {-480} - Electrodes Disconnected: Mask=0x3
hpr_dir/11.tzr [000026, 000300] 2019/07/30 11:56:48.000 {-480} - Electrodes Disconnected: Mask=0x3
hpr_dir/11.tzr [000026, 000600] 2019/07/30 11:56:48.000 {-480} - Electrodes Disconnected: Mask=0x3
hpr_dir/11.tzr [000027, 000300] 2019/07/30 11:57:39.000 {-480} - Electrodes Disconnected: Mask=0x3
hpr_dir/11.tzr [000027, 000600] 2019/07/30 11:57:39.000 {-480} - Electrodes Disconnected: Mask=0x3
hpr_dir/11.tzr [000027, 002442] 2019/07/30 11:57:50.000 {-480} - Pedometer Steps: 4
hpr_dir/11.tzr [000027, 004303] 2019/07/30 11:57:59.000 {-480} - Battery Voltage: 4169 mV
hpr_dir/11.tzr [000027, 004303] 2019/07/30 11:57:59.000 {-480} - Battery Percent Charge: 99.5703%
hpr_dir/11.tzr [000027, 004194] 2019/07/30 11:57:39.000 {-480} - Electrodes Disconnected: Mask=0x3
hpr_dir/11.tzr [000027, 004794] 2019/07/30 11:57:39.000 {-480} - Electrodes Disconnected: Mask=0x3
hpr_dir/11.tzr [000027, 005094] 2019/07/30 11:57:39.000 {-480} - Electrodes Disconnected: Mask=0x3
hpr_dir/11.tzr [000027, 005394] 2019/07/30 11:57:39.000 {-480} - Electrodes Disconnected: Mask=0x3
hpr_dir/11.tzr [000027, 008495] 2019/07/30 11:58:20.000 {-480} - Pedometer Steps: 16
hpr_dir/11.tzr [000028, 000300] 2019/07/30 11:58:30.000 {-480} - Electrodes Disconnected: Mask=0x3
hpr_dir/11.tzr [000028, 000600] 2019/07/30 11:58:30.000 {-480} - Electrodes Disconnected: Mask=0x3
hpr_dir/11.tzr [000028, 004358] 2019/07/30 11:58:50.000 {-480} - Pedometer Steps: 19
hpr_dir/11.tzr [000028, 010414] 2019/07/30 11:59:21.000 {-480} - Pedometer Steps: 6
hpr_dir/11.tzr [000029, 000300] 2019/07/30 11:59:21.000 {-480} - Electrodes Disconnected: Mask=0x3
hpr_dir/11.tzr [000029, 001500] 2019/07/30 11:59:21.000 {-480} - Electrodes Disconnected: Mask=0x3
hpr_dir/11.tzr [000029, 001800] 2019/07/30 11:59:21.000 {-480} - Electrodes Disconnected: Mask=0x3
hpr_dir/11.tzr [000029, 002100] 2019/07/30 11:59:21.000 {-480} - Electrodes Disconnected: Mask=0x3
hpr_dir/11.tzr [000029, 002700] 2019/07/30 11:59:21.000 {-480} - Electrodes Disconnected: Mask=0x3
hpr_dir/11.tzr [000029, 003000] 2019/07/30 11:59:21.000 {-480} - Electrodes Disconnected: Mask=0x3
hpr_dir/11.tzr [000029, 009000] 2019/07/30 11:59:21.000 {-480} - Electrodes Disconnected: Mask=0x3
hpr_dir/11.tzr [000000, 000000] 2019/07/30 12:00:12.000 {-480} - Final Entry
hpr_dir/12.tzr [000030, 000900] 2019/07/30 12:00:11.000 {-480} - Electrodes Disconnected: Mask=0x3
hpr_dir/12.tzr [000031, 000300] 2019/07/30 12:01:02.000 {-480} - Electrodes Disconnected: Mask=0x3
hpr_dir/12.tzr [000031, 000600] 2019/07/30 12:01:02.000 {-480} - Electrodes Disconnected: Mask=0x3
hpr_dir/12.tzr [000032, 000300] 2019/07/30 12:01:53.000 {-480} - Electrodes Disconnected: Mask=0x3
hpr_dir/12.tzr [000032, 000600] 2019/07/30 12:01:53.000 {-480} - Electrodes Disconnected: Mask=0x3
hpr_dir/12.tzr [000033, 000300] 2019/07/30 12:02:44.000 {-480} - Electrodes Disconnected: Mask=0x3
hpr_dir/12.tzr [000033, 000600] 2019/07/30 12:02:44.000 {-480} - Electrodes Disconnected: Mask=0x3
hpr_dir/12.tzr [000033, 004488] 2019/07/30 12:03:04.000 {-480} - Battery Voltage: 4169 mV
hpr_dir/12.tzr [000033, 004488] 2019/07/30 12:03:04.000 {-480} - Battery Percent Charge: 99.4961%
hpr_dir/12.tzr [000034, 000300] 2019/07/30 12:03:34.000 {-480} - Electrodes Disconnected: Mask=0x3
hpr_dir/12.tzr [000034, 000600] 2019/07/30 12:03:34.000 {-480} - Electrodes Disconnected: Mask=0x3
hpr_dir/12.tzr [000035, 006600] 2019/07/30 12:04:25.000 {-480} - Electrodes Disconnected: Mask=0x3
hpr_dir/12.tzr [000035, 006900] 2019/07/30 12:04:25.000 {-480} - Electrodes Disconnected: Mask=0x3
hpr_dir/12.tzr [000035, 007500] 2019/07/30 12:04:25.000 {-480} - Electrodes Disconnected: Mask=0x3
hpr_dir/12.tzr [000035, 007800] 2019/07/30 12:04:25.000 {-480} - Electrodes Disconnected: Mask=0x3
hpr_dir/12.tzr [000036, 000300] 2019/07/30 12:05:16.000 {-480} - Electrodes Disconnected: Mask=0x3
hpr_dir/12.tzr [000036, 000600] 2019/07/30 12:05:16.000 {-480} - Electrodes Disconnected: Mask=0x3
hpr_dir/12.tzr [000036, 001779] 2019/07/30 12:05:24.000 {-480} - Pedometer Steps: 15
hpr_dir/12.tzr [000036, 004798] 2019/07/30 12:05:16.000 {-480} - Electrodes Disconnected: Mask=0x3
hpr_dir/12.tzr [000036, 005698] 2019/07/30 12:05:16.000 {-480} - Electrodes Disconnected: Mask=0x3
hpr_dir/12.tzr [000036, 007834] 2019/07/30 12:05:54.000 {-480} - Pedometer Steps: 24
hpr_dir/12.tzr [000036, 008696] 2019/07/30 12:05:16.000 {-480} - Electrodes Disconnected: Mask=0x3
hpr_dir/12.tzr [000036, 008996] 2019/07/30 12:05:16.000 {-480} - Electrodes Disconnected: Mask=0x3
hpr_dir/12.tzr [000037, 000300] 2019/07/30 12:06:04.000 {-480} - Electrodes Disconnected: Mask=0x3
hpr_dir/12.tzr [000037, 000600] 2019/07/30 12:06:04.000 {-480} - Electrodes Disconnected: Mask=0x3
hpr_dir/12.tzr [000037, 003900] 2019/07/30 12:06:04.000 {-480} - Electrodes Disconnected: Mask=0x3
hpr_dir/12.tzr [000037, 004200] 2019/07/30 12:06:04.000 {-480} - Electrodes Disconnected: Mask=0x3
hpr_dir/12.tzr [000037, 006000] 2019/07/30 12:06:04.000 {-480} - Electrodes Disconnected: Mask=0x3
hpr_dir/12.tzr [000037, 006300] 2019/07/30 12:06:04.000 {-480} - Electrodes Disconnected: Mask=0x3
hpr_dir/12.tzr [000037, 006900] 2019/07/30 12:06:04.000 {-480} - Electrodes Disconnected: Mask=0x3
hpr_dir/12.tzr [000037, 007500] 2019/07/30 12:06:04.000 {-480} - Electrodes Disconnected: Mask=0x3
hpr_dir/12.tzr [000037, 009000] 2019/07/30 12:06:04.000 {-480} - Electrodes Disconnected: Mask=0x0
hpr_dir/12.tzr [000037, 009300] 2019/07/30 12:06:04.000 {-480} - Electrodes Disconnected: Mask=0x2
hpr_dir/12.tzr [000037, 009600] 2019/07/30 12:06:04.000 {-480} - Electrodes Disconnected: Mask=0x2
hpr_dir/12.tzr [000037, 000000] 2019/07/30 12:07:46.000 {-480} - ECG Recording Interrupted: 100
hpr_dir/12.tzr [000038, 000000] 2019/07/30 12:07:46.000 {-480} - ECG Recording Resumed: 0
hpr_dir/12.tzr [000038, 000600] 2019/07/30 12:07:46.000 {-480} - Electrodes Disconnected: Mask=0x3
hpr_dir/12.tzr [000038, 000900] 2019/07/30 12:07:46.000 {-480} - Electrodes Disconnected: Mask=0x0
hpr_dir/12.tzr [000038, 001200] 2019/07/30 12:07:46.000 {-480} - Electrodes Disconnected: Mask=0x2
hpr_dir/12.tzr [000038, 002700] 2019/07/30 12:07:46.000 {-480} - Electrodes Disconnected: Mask=0x0
hpr_dir/12.tzr [000038, 003300] 2019/07/30 12:07:46.000 {-480} - Electrodes Disconnected: Mask=0x2
hpr_dir/12.tzr [000038, 003600] 2019/07/30 12:07:46.000 {-480} - Electrodes Disconnected: Mask=0x2
hpr_dir/12.tzr [000038, 003900] 2019/07/30 12:07:46.000 {-480} - Electrodes Disconnected: Mask=0x2
hpr_dir/12.tzr [000038, 004500] 2019/07/30 12:07:46.000 {-480} - Electrodes Disconnected: Mask=0x3
hpr_dir/12.tzr [000038, 006600] 2019/07/30 12:07:46.000 {-480} - Electrodes Disconnected: Mask=0x3
hpr_dir/12.tzr [000038, 007200] 2019/07/30 12:07:46.000 {-480} - Electrodes Disconnected: Mask=0x3
hpr_dir/12.tzr [000039, 000300] 2019/07/30 12:08:34.000 {-480} - Electrodes Disconnected: Mask=0x3
hpr_dir/12.tzr [000039, 000900] 2019/07/30 12:08:34.000 {-480} - Electrodes Disconnected: Mask=0x3
hpr_dir/12.tzr [000039, 004500] 2019/07/30 12:08:34.000 {-480} - Electrodes Disconnected: Mask=0x3
hpr_dir/12.tzr [000039, 005100] 2019/07/30 12:08:34.000 {-480} - Electrodes Disconnected: Mask=0x3
hpr_dir/12.tzr [000040, 000300] 2019/07/30 12:09:25.000 {-480} - Electrodes Disconnected: Mask=0x3
hpr_dir/12.tzr [000040, 000600] 2019/07/30 12:09:25.000 {-480} - Electrodes Disconnected: Mask=0x3
hpr_dir/12.tzr [000041, 000300] 2019/07/30 12:10:16.000 {-480} - Electrodes Disconnected: Mask=0x3
hpr_dir/12.tzr [000041, 000600] 2019/07/30 12:10:16.000 {-480} - Electrodes Disconnected: Mask=0x3
hpr_dir/12.tzr [000042, 000300] 2019/07/30 12:11:07.000 {-480} - Electrodes Disconnected: Mask=0x3
hpr_dir/12.tzr [000042, 000600] 2019/07/30 12:11:07.000 {-480} - Electrodes Disconnected: Mask=0x3
hpr_dir/12.tzr [000042, 010200] 2019/07/30 12:11:07.000 {-480} - Electrodes Disconnected: Mask=0x3
hpr_dir/12.tzr [000043, 000600] 2019/07/30 12:11:58.000 {-480} - Electrodes Disconnected: Mask=0x3
hpr_dir/12.tzr [000043, 001800] 2019/07/30 12:11:58.000 {-480} - Electrodes Disconnected: Mask=0x3
hpr_dir/12.tzr [000043, 002100] 2019/07/30 12:11:58.000 {-480} - Electrodes Disconnected: Mask=0x3
hpr_dir/12.tzr [000044, 000300] 2019/07/30 12:12:48.000 {-480} - Electrodes Disconnected: Mask=0x3
hpr_dir/12.tzr [000044, 000862] 2019/07/30 12:12:51.000 {-480} - Battery Voltage: 4167 mV
hpr_dir/12.tzr [000044, 000862] 2019/07/30 12:12:51.000 {-480} - Battery Percent Charge: 99.3516%
hpr_dir/12.tzr [000044, 000596] 2019/07/30 12:12:48.000 {-480} - Electrodes Disconnected: Mask=0x3
hpr_dir/12.tzr [000044, 000896] 2019/07/30 12:12:48.000 {-480} - Electrodes Disconnected: Mask=0x3
hpr_dir/12.tzr [000044, 001196] 2019/07/30 12:12:48.000 {-480} - Electrodes Disconnected: Mask=0x3
hpr_dir/12.tzr [000045, 000300] 2019/07/30 12:13:39.000 {-480} - Electrodes Disconnected: Mask=0x3
hpr_dir/12.tzr [000045, 000600] 2019/07/30 12:13:39.000 {-480} - Electrodes Disconnected: Mask=0x3
hpr_dir/12.tzr [000045, 004200] 2019/07/30 12:13:39.000 {-480} - Electrodes Disconnected: Mask=0x3
hpr_dir/12.tzr [000045, 005100] 2019/07/30 12:13:39.000 {-480} - Electrodes Disconnected: Mask=0x3
hpr_dir/12.tzr [000045, 005400] 2019/07/30 12:13:39.000 {-480} - Electrodes Disconnected: Mask=0x3
hpr_dir/12.tzr [000045, 005700] 2019/07/30 12:13:39.000 {-480} - Electrodes Disconnected: Mask=0x3
hpr_dir/12.tzr [000045, 006600] 2019/07/30 12:13:39.000 {-480} - Electrodes Disconnected: Mask=0x3
hpr_dir/12.tzr [000045, 007200] 2019/07/30 12:13:39.000 {-480} - Electrodes Disconnected: Mask=0x3
hpr_dir/12.tzr [000046, 000300] 2019/07/30 12:14:28.000 {-480} - Electrodes Disconnected: Mask=0x3
hpr_dir/12.tzr [000046, 000600] 2019/07/30 12:14:28.000 {-480} - Electrodes Disconnected: Mask=0x3
hpr_dir/12.tzr [000047, 000300] 2019/07/30 12:15:19.000 {-480} - Electrodes Disconnected: Mask=0x3
hpr_dir/12.tzr [000047, 000600] 2019/07/30 12:15:19.000 {-480} - Electrodes Disconnected: Mask=0x3
hpr_dir/12.tzr [000047, 001800] 2019/07/30 12:15:19.000 {-480} - Electrodes Disconnected: Mask=0x3
hpr_dir/12.tzr [000047, 002100] 2019/07/30 12:15:19.000 {-480} - Electrodes Disconnected: Mask=0x3
hpr_dir/12.tzr [000048, 000300] 2019/07/30 12:16:10.000 {-480} - Electrodes Disconnected: Mask=0x3
hpr_dir/12.tzr [000048, 000600] 2019/07/30 12:16:10.000 {-480} - Electrodes Disconnected: Mask=0x3
hpr_dir/12.tzr [000049, 000300] 2019/07/30 12:17:01.000 {-480} - Electrodes Disconnected: Mask=0x3
hpr_dir/12.tzr [000049, 000600] 2019/07/30 12:17:01.000 {-480} - Electrodes Disconnected: Mask=0x3
hpr_dir/12.tzr [000049, 005100] 2019/07/30 12:17:01.000 {-480} - Electrodes Disconnected: Mask=0x3
hpr_dir/12.tzr [000049, 005400] 2019/07/30 12:17:01.000 {-480} - Electrodes Disconnected: Mask=0x3
hpr_dir/12.tzr [000050, 000300] 2019/07/30 12:17:52.000 {-480} - Electrodes Disconnected: Mask=0x3
hpr_dir/12.tzr [000050, 000600] 2019/07/30 12:17:52.000 {-480} - Electrodes Disconnected: Mask=0x3
hpr_dir/12.tzr [000050, 001049] 2019/07/30 12:17:56.000 {-480} - Battery Voltage: 4167 mV
hpr_dir/12.tzr [000050, 001049] 2019/07/30 12:17:56.000 {-480} - Battery Percent Charge: 99.2891%
hpr_dir/12.tzr [000050, 006596] 2019/07/30 12:17:52.000 {-480} - Electrodes Disconnected: Mask=0x3
hpr_dir/12.tzr [000050, 007196] 2019/07/30 12:17:52.000 {-480} - Electrodes Disconnected: Mask=0x3
hpr_dir/12.tzr [000051, 000300] 2019/07/30 12:18:43.000 {-480} - Electrodes Disconnected: Mask=0x3
hpr_dir/12.tzr [000051, 000600] 2019/07/30 12:18:43.000 {-480} - Electrodes Disconnected: Mask=0x3
hpr_dir/12.tzr [000051, 005100] 2019/07/30 12:18:43.000 {-480} - Electrodes Disconnected: Mask=0x3
hpr_dir/12.tzr [000051, 005400] 2019/07/30 12:18:43.000 {-480} - Electrodes Disconnected: Mask=0x3
hpr_dir/12.tzr [000052, 000300] 2019/07/30 12:19:34.000 {-480} - Electrodes Disconnected: Mask=0x3
hpr_dir/12.tzr [000052, 000600] 2019/07/30 12:19:34.000 {-480} - Electrodes Disconnected: Mask=0x3
hpr_dir/12.tzr [000052, 002100] 2019/07/30 12:19:34.000 {-480} - Electrodes Disconnected: Mask=0x3
hpr_dir/12.tzr [000052, 002400] 2019/07/30 12:19:34.000 {-480} - Electrodes Disconnected: Mask=0x3
hpr_dir/12.tzr [000052, 003900] 2019/07/30 12:19:34.000 {-480} - Electrodes Disconnected: Mask=0x3
hpr_dir/12.tzr [000052, 004200] 2019/07/30 12:19:34.000 {-480} - Electrodes Disconnected: Mask=0x3
hpr_dir/12.tzr [000053, 000300] 2019/07/30 12:20:25.000 {-480} - Electrodes Disconnected: Mask=0x3
hpr_dir/12.tzr [000053, 000600] 2019/07/30 12:20:25.000 {-480} - Electrodes Disconnected: Mask=0x3
hpr_dir/12.tzr [000053, 006000] 2019/07/30 12:20:25.000 {-480} - Electrodes Disconnected: Mask=0x3
hpr_dir/12.tzr [000053, 006300] 2019/07/30 12:20:25.000 {-480} - Electrodes Disconnected: Mask=0x3
hpr_dir/12.tzr [000054, 000300] 2019/07/30 12:21:16.000 {-480} - Electrodes Disconnected: Mask=0x3
hpr_dir/12.tzr [000054, 000600] 2019/07/30 12:21:16.000 {-480} - Electrodes Disconnected: Mask=0x3
hpr_dir/12.tzr [000055, 000300] 2019/07/30 12:22:07.000 {-480} - Electrodes Disconnected: Mask=0x3
hpr_dir/12.tzr [000055, 000600] 2019/07/30 12:22:07.000 {-480} - Electrodes Disconnected: Mask=0x3
hpr_dir/12.tzr [000056, 000300] 2019/07/30 12:22:58.000 {-480} - Electrodes Disconnected: Mask=0x3
hpr_dir/12.tzr [000056, 000600] 2019/07/30 12:22:58.000 {-480} - Electrodes Disconnected: Mask=0x3
hpr_dir/12.tzr [000056, 000930] 2019/07/30 12:23:01.000 {-480} - Battery Voltage: 4166 mV
hpr_dir/12.tzr [000056, 000930] 2019/07/30 12:23:01.000 {-480} - Battery Percent Charge: 99.2188%
hpr_dir/12.tzr [000057, 000300] 2019/07/30 12:23:49.000 {-480} - Electrodes Disconnected: Mask=0x3
hpr_dir/12.tzr [000057, 000600] 2019/07/30 12:23:49.000 {-480} - Electrodes Disconnected: Mask=0x3
hpr_dir/12.tzr [000058, 000300] 2019/07/30 12:24:40.000 {-480} - Electrodes Disconnected: Mask=0x3
hpr_dir/12.tzr [000058, 000600] 2019/07/30 12:24:40.000 {-480} - Electrodes Disconnected: Mask=0x3
hpr_dir/12.tzr [000059, 000300] 2019/07/30 12:25:31.000 {-480} - Electrodes Disconnected: Mask=0x3
hpr_dir/12.tzr [000059, 000600] 2019/07/30 12:25:31.000 {-480} - Electrodes Disconnected: Mask=0x3
hpr_dir/12.tzr [000060, 000300] 2019/07/30 12:26:22.000 {-480} - Electrodes Disconnected: Mask=0x3
hpr_dir/12.tzr [000060, 000600] 2019/07/30 12:26:22.000 {-480} - Electrodes Disconnected: Mask=0x3
hpr_dir/12.tzr [000061, 000300] 2019/07/30 12:27:13.000 {-480} - Electrodes Disconnected: Mask=0x3
hpr_dir/12.tzr [000061, 000600] 2019/07/30 12:27:13.000 {-480} - Electrodes Disconnected: Mask=0x3
hpr_dir/12.tzr [000062, 000300] 2019/07/30 12:28:04.000 {-480} - Electrodes Disconnected: Mask=0x3
hpr_dir/12.tzr [000062, 000811] 2019/07/30 12:28:07.000 {-480} - Battery Voltage: 4166 mV
hpr_dir/12.tzr [000062, 000811] 2019/07/30 12:28:07.000 {-480} - Battery Percent Charge: 99.1445%
hpr_dir/12.tzr [000062, 000596] 2019/07/30 12:28:04.000 {-480} - Electrodes Disconnected: Mask=0x3
hpr_dir/12.tzr [000063, 000300] 2019/07/30 12:28:55.000 {-480} - Electrodes Disconnected: Mask=0x3
hpr_dir/12.tzr [000063, 000600] 2019/07/30 12:28:55.000 {-480} - Electrodes Disconnected: Mask=0x3
hpr_dir/12.tzr [000064, 000300] 2019/07/30 12:29:46.000 {-480} - Electrodes Disconnected: Mask=0x3
hpr_dir/12.tzr [000064, 000600] 2019/07/30 12:29:46.000 {-480} - Electrodes Disconnected: Mask=0x3
hpr_dir/12.tzr [000065, 000300] 2019/07/30 12:30:37.000 {-480} - Electrodes Disconnected: Mask=0x3
hpr_dir/12.tzr [000065, 000600] 2019/07/30 12:30:37.000 {-480} - Electrodes Disconnected: Mask=0x3
hpr_dir/12.tzr [000066, 000300] 2019/07/30 12:31:28.000 {-480} - Electrodes Disconnected: Mask=0x3
hpr_dir/12.tzr [000066, 000600] 2019/07/30 12:31:28.000 {-480} - Electrodes Disconnected: Mask=0x3
hpr_dir/12.tzr [000067, 000300] 2019/07/30 12:32:19.000 {-480} - Electrodes Disconnected: Mask=0x3
hpr_dir/12.tzr [000067, 000600] 2019/07/30 12:32:19.000 {-480} - Electrodes Disconnected: Mask=0x3
hpr_dir/12.tzr [000068, 000300] 2019/07/30 12:33:10.000 {-480} - Electrodes Disconnected: Mask=0x3
hpr_dir/12.tzr [000068, 000685] 2019/07/30 12:33:12.000 {-480} - Battery Voltage: 4165 mV
hpr_dir/12.tzr [000068, 000685] 2019/07/30 12:33:12.000 {-480} - Battery Percent Charge: 99.0820%
hpr_dir/12.tzr [000068, 000596] 2019/07/30 12:33:10.000 {-480} - Electrodes Disconnected: Mask=0x3
hpr_dir/12.tzr [000068, 006296] 2019/07/30 12:33:10.000 {-480} - Electrodes Disconnected: Mask=0x3
hpr_dir/12.tzr [000068, 006596] 2019/07/30 12:33:10.000 {-480} - Electrodes Disconnected: Mask=0x3
hpr_dir/12.tzr [000069, 000300] 2019/07/30 12:34:01.000 {-480} - Electrodes Disconnected: Mask=0x3
hpr_dir/12.tzr [000069, 000600] 2019/07/30 12:34:01.000 {-480} - Electrodes Disconnected: Mask=0x3
hpr_dir/12.tzr [000070, 000300] 2019/07/30 12:34:52.000 {-480} - Electrodes Disconnected: Mask=0x3
hpr_dir/12.tzr [000070, 000600] 2019/07/30 12:34:52.000 {-480} - Electrodes Disconnected: Mask=0x3
hpr_dir/12.tzr [000071, 000300] 2019/07/30 12:35:43.000 {-480} - Electrodes Disconnected: Mask=0x3
hpr_dir/12.tzr [000071, 000600] 2019/07/30 12:35:43.000 {-480} - Electrodes Disconnected: Mask=0x3
hpr_dir/12.tzr [000072, 000300] 2019/07/30 12:36:34.000 {-480} - Electrodes Disconnected: Mask=0x3
hpr_dir/12.tzr [000072, 000600] 2019/07/30 12:36:34.000 {-480} - Electrodes Disconnected: Mask=0x3
hpr_dir/12.tzr [000073, 000300] 2019/07/30 12:37:25.000 {-480} - Electrodes Disconnected: Mask=0x3
hpr_dir/12.tzr [000073, 000600] 2019/07/30 12:37:25.000 {-480} - Electrodes Disconnected: Mask=0x3
hpr_dir/12.tzr [000074, 000566] 2019/07/30 12:38:18.000 {-480} - Battery Voltage: 4165 mV
hpr_dir/12.tzr [000074, 000566] 2019/07/30 12:38:18.000 {-480} - Battery Percent Charge: 99.0078%
hpr_dir/12.tzr [000074, 000296] 2019/07/30 12:38:16.000 {-480} - Electrodes Disconnected: Mask=0x3
hpr_dir/12.tzr [000074, 000596] 2019/07/30 12:38:16.000 {-480} - Electrodes Disconnected: Mask=0x3
hpr_dir/12.tzr [000075, 000300] 2019/07/30 12:39:07.000 {-480} - Electrodes Disconnected: Mask=0x3
hpr_dir/12.tzr [000075, 000600] 2019/07/30 12:39:07.000 {-480} - Electrodes Disconnected: Mask=0x3
hpr_dir/12.tzr [000076, 000300] 2019/07/30 12:39:58.000 {-480} - Electrodes Disconnected: Mask=0x3
hpr_dir/12.tzr [000076, 000600] 2019/07/30 12:39:58.000 {-480} - Electrodes Disconnected: Mask=0x3
hpr_dir/12.tzr [000077, 000300] 2019/07/30 12:40:49.000 {-480} - Electrodes Disconnected: Mask=0x3
hpr_dir/12.tzr [000077, 000600] 2019/07/30 12:40:49.000 {-480} - Electrodes Disconnected: Mask=0x3
hpr_dir/12.tzr [000077, 005700] 2019/07/30 12:40:49.000 {-480} - Electrodes Disconnected: Mask=0x3
hpr_dir/12.tzr [000077, 006000] 2019/07/30 12:40:49.000 {-480} - Electrodes Disconnected: Mask=0x3
hpr_dir/12.tzr [000078, 000300] 2019/07/30 12:41:40.000 {-480} - Electrodes Disconnected: Mask=0x3
hpr_dir/12.tzr [000078, 000600] 2019/07/30 12:41:40.000 {-480} - Electrodes Disconnected: Mask=0x3
hpr_dir/12.tzr [000079, 000300] 2019/07/30 12:42:31.000 {-480} - Electrodes Disconnected: Mask=0x3
hpr_dir/12.tzr [000079, 000600] 2019/07/30 12:42:31.000 {-480} - Electrodes Disconnected: Mask=0x3
hpr_dir/12.tzr [000080, 000448] 2019/07/30 12:43:23.000 {-480} - Battery Voltage: 4164 mV
hpr_dir/12.tzr [000080, 000448] 2019/07/30 12:43:23.000 {-480} - Battery Percent Charge: 98.9375%
hpr_dir/12.tzr [000080, 000296] 2019/07/30 12:43:22.000 {-480} - Electrodes Disconnected: Mask=0x3
hpr_dir/12.tzr [000080, 000596] 2019/07/30 12:43:22.000 {-480} - Electrodes Disconnected: Mask=0x3
hpr_dir/12.tzr [000081, 000300] 2019/07/30 12:44:13.000 {-480} - Electrodes Disconnected: Mask=0x3
hpr_dir/12.tzr [000081, 000600] 2019/07/30 12:44:13.000 {-480} - Electrodes Disconnected: Mask=0x3
hpr_dir/12.tzr [000081, 005100] 2019/07/30 12:44:13.000 {-480} - Electrodes Disconnected: Mask=0x3
hpr_dir/12.tzr [000081, 005400] 2019/07/30 12:44:13.000 {-480} - Electrodes Disconnected: Mask=0x3
hpr_dir/12.tzr [000082, 000300] 2019/07/30 12:45:04.000 {-480} - Electrodes Disconnected: Mask=0x3
hpr_dir/12.tzr [000082, 000600] 2019/07/30 12:45:04.000 {-480} - Electrodes Disconnected: Mask=0x3
hpr_dir/12.tzr [000082, 001200] 2019/07/30 12:45:04.000 {-480} - Electrodes Disconnected: Mask=0x3
hpr_dir/12.tzr [000082, 001500] 2019/07/30 12:45:04.000 {-480} - Electrodes Disconnected: Mask=0x3
hpr_dir/12.tzr [000082, 005700] 2019/07/30 12:45:04.000 {-480} - Electrodes Disconnected: Mask=0x3
hpr_dir/12.tzr [000082, 006000] 2019/07/30 12:45:04.000 {-480} - Electrodes Disconnected: Mask=0x3
hpr_dir/12.tzr [000082, 006300] 2019/07/30 12:45:04.000 {-480} - Electrodes Disconnected: Mask=0x3
hpr_dir/12.tzr [000082, 006600] 2019/07/30 12:45:04.000 {-480} - Electrodes Disconnected: Mask=0x3
hpr_dir/12.tzr [000083, 000300] 2019/07/30 12:45:55.000 {-480} - Electrodes Disconnected: Mask=0x3
hpr_dir/12.tzr [000083, 000600] 2019/07/30 12:45:55.000 {-480} - Electrodes Disconnected: Mask=0x3
hpr_dir/12.tzr [000083, 010200] 2019/07/30 12:45:55.000 {-480} - Electrodes Disconnected: Mask=0x3
hpr_dir/12.tzr [000084, 000600] 2019/07/30 12:46:46.000 {-480} - Electrodes Disconnected: Mask=0x3
hpr_dir/12.tzr [000084, 001200] 2019/07/30 12:46:46.000 {-480} - Electrodes Disconnected: Mask=0x3
hpr_dir/12.tzr [000084, 001500] 2019/07/30 12:46:46.000 {-480} - Electrodes Disconnected: Mask=0x3
hpr_dir/12.tzr [000084, 002100] 2019/07/30 12:46:46.000 {-480} - Electrodes Disconnected: Mask=0x3
hpr_dir/12.tzr [000084, 002700] 2019/07/30 12:46:46.000 {-480} - Electrodes Disconnected: Mask=0x3
hpr_dir/12.tzr [000085, 000300] 2019/07/30 12:47:36.000 {-480} - Electrodes Disconnected: Mask=0x3
hpr_dir/12.tzr [000085, 000600] 2019/07/30 12:47:36.000 {-480} - Electrodes Disconnected: Mask=0x3
hpr_dir/12.tzr [000085, 001200] 2019/07/30 12:47:36.000 {-480} - Electrodes Disconnected: Mask=0x3
hpr_dir/12.tzr [000085, 001500] 2019/07/30 12:47:36.000 {-480} - Electrodes Disconnected: Mask=0x3
hpr_dir/12.tzr [000086, 000300] 2019/07/30 12:48:27.000 {-480} - Electrodes Disconnected: Mask=0x3
hpr_dir/12.tzr [000086, 000625] 2019/07/30 12:48:28.000 {-480} - Battery Voltage: 4164 mV
hpr_dir/12.tzr [000086, 000625] 2019/07/30 12:48:28.000 {-480} - Battery Percent Charge: 98.8633%
hpr_dir/12.tzr [000086, 000596] 2019/07/30 12:48:27.000 {-480} - Electrodes Disconnected: Mask=0x3
hpr_dir/12.tzr [000086, 005696] 2019/07/30 12:48:27.000 {-480} - Electrodes Disconnected: Mask=0x3
hpr_dir/12.tzr [000086, 006296] 2019/07/30 12:48:27.000 {-480} - Electrodes Disconnected: Mask=0x3
hpr_dir/12.tzr [000087, 000300] 2019/07/30 12:49:18.000 {-480} - Electrodes Disconnected: Mask=0x3
hpr_dir/12.tzr [000087, 000600] 2019/07/30 12:49:18.000 {-480} - Electrodes Disconnected: Mask=0x3
hpr_dir/12.tzr [000087, 008400] 2019/07/30 12:49:18.000 {-480} - Electrodes Disconnected: Mask=0x3
hpr_dir/12.tzr [000087, 008700] 2019/07/30 12:49:18.000 {-480} - Electrodes Disconnected: Mask=0x3
hpr_dir/12.tzr [000088, 000300] 2019/07/30 12:50:09.000 {-480} - Electrodes Disconnected: Mask=0x3
hpr_dir/12.tzr [000088, 000600] 2019/07/30 12:50:09.000 {-480} - Electrodes Disconnected: Mask=0x3
hpr_dir/12.tzr [000088, 005400] 2019/07/30 12:50:09.000 {-480} - Electrodes Disconnected: Mask=0x3
hpr_dir/12.tzr [000088, 005700] 2019/07/30 12:50:09.000 {-480} - Electrodes Disconnected: Mask=0x3
hpr_dir/12.tzr [000089, 000300] 2019/07/30 12:51:00.000 {-480} - Electrodes Disconnected: Mask=0x3
hpr_dir/12.tzr [000089, 000600] 2019/07/30 12:51:00.000 {-480} - Electrodes Disconnected: Mask=0x3
hpr_dir/12.tzr [000090, 000300] 2019/07/30 12:51:51.000 {-480} - Electrodes Disconnected: Mask=0x3
hpr_dir/12.tzr [000090, 000600] 2019/07/30 12:51:51.000 {-480} - Electrodes Disconnected: Mask=0x3
hpr_dir/12.tzr [000091, 000300] 2019/07/30 12:52:42.000 {-480} - Electrodes Disconnected: Mask=0x3
hpr_dir/12.tzr [000091, 000600] 2019/07/30 12:52:42.000 {-480} - Electrodes Disconnected: Mask=0x3
hpr_dir/12.tzr [000092, 000492] 2019/07/30 12:53:34.000 {-480} - Battery Voltage: 4164 mV
hpr_dir/12.tzr [000092, 000492] 2019/07/30 12:53:34.000 {-480} - Battery Percent Charge: 98.8008%
hpr_dir/12.tzr [000092, 000296] 2019/07/30 12:53:33.000 {-480} - Electrodes Disconnected: Mask=0x3
hpr_dir/12.tzr [000092, 000596] 2019/07/30 12:53:33.000 {-480} - Electrodes Disconnected: Mask=0x3
hpr_dir/12.tzr [000093, 000300] 2019/07/30 12:54:24.000 {-480} - Electrodes Disconnected: Mask=0x3
hpr_dir/12.tzr [000093, 000600] 2019/07/30 12:54:24.000 {-480} - Electrodes Disconnected: Mask=0x3
hpr_dir/12.tzr [000094, 000300] 2019/07/30 12:55:15.000 {-480} - Electrodes Disconnected: Mask=0x3
hpr_dir/12.tzr [000094, 000600] 2019/07/30 12:55:15.000 {-480} - Electrodes Disconnected: Mask=0x3
hpr_dir/12.tzr [000095, 000300] 2019/07/30 12:56:06.000 {-480} - Electrodes Disconnected: Mask=0x3
hpr_dir/12.tzr [000095, 000600] 2019/07/30 12:56:06.000 {-480} - Electrodes Disconnected: Mask=0x3
hpr_dir/12.tzr [000096, 000300] 2019/07/30 12:56:57.000 {-480} - Electrodes Disconnected: Mask=0x3
hpr_dir/12.tzr [000096, 000600] 2019/07/30 12:56:57.000 {-480} - Electrodes Disconnected: Mask=0x3
hpr_dir/12.tzr [000097, 000300] 2019/07/30 12:57:48.000 {-480} - Electrodes Disconnected: Mask=0x3
hpr_dir/12.tzr [000097, 000600] 2019/07/30 12:57:48.000 {-480} - Electrodes Disconnected: Mask=0x3
hpr_dir/12.tzr [000098, 000370] 2019/07/30 12:58:39.000 {-480} - Battery Voltage: 4163 mV
hpr_dir/12.tzr [000098, 000370] 2019/07/30 12:58:39.000 {-480} - Battery Percent Charge: 98.7305%
hpr_dir/12.tzr [000098, 000296] 2019/07/30 12:58:39.000 {-480} - Electrodes Disconnected: Mask=0x3
hpr_dir/12.tzr [000098, 000596] 2019/07/30 12:58:39.000 {-480} - Electrodes Disconnected: Mask=0x3
hpr_dir/12.tzr [000099, 000300] 2019/07/30 12:59:30.000 {-480} - Electrodes Disconnected: Mask=0x3
hpr_dir/12.tzr [000099, 000600] 2019/07/30 12:59:30.000 {-480} - Electrodes Disconnected: Mask=0x3
hpr_dir/12.tzr [000099, 007200] 2019/07/30 12:59:30.000 {-480} - Electrodes Disconnected: Mask=0x3
hpr_dir/12.tzr [000099, 007500] 2019/07/30 12:59:30.000 {-480} - Electrodes Disconnected: Mask=0x3
hpr_dir/12.tzr [000000, 000000] 2019/07/30 13:00:22.000 {-480} - Final Entry
hpr_dir/13.tzr [000100, 000300] 2019/07/30 13:00:21.000 {-480} - Electrodes Disconnected: Mask=0x3
hpr_dir/13.tzr [000100, 000600] 2019/07/30 13:00:21.000 {-480} - Electrodes Disconnected: Mask=0x3
hpr_dir/13.tzr [000101, 000300] 2019/07/30 13:01:12.000 {-480} - Electrodes Disconnected: Mask=0x3
hpr_dir/13.tzr [000101, 000600] 2019/07/30 13:01:12.000 {-480} - Electrodes Disconnected: Mask=0x3
hpr_dir/13.tzr [000102, 000300] 2019/07/30 13:02:03.000 {-480} - Electrodes Disconnected: Mask=0x3
hpr_dir/13.tzr [000102, 000600] 2019/07/30 13:02:03.000 {-480} - Electrodes Disconnected: Mask=0x3
hpr_dir/13.tzr [000103, 000300] 2019/07/30 13:02:54.000 {-480} - Electrodes Disconnected: Mask=0x3
hpr_dir/13.tzr [000103, 000600] 2019/07/30 13:02:54.000 {-480} - Electrodes Disconnected: Mask=0x3
hpr_dir/13.tzr [000103, 010455] 2019/07/30 13:03:44.000 {-480} - Battery Voltage: 4163 mV
hpr_dir/13.tzr [000103, 010455] 2019/07/30 13:03:44.000 {-480} - Battery Percent Charge: 98.6680%
hpr_dir/13.tzr [000104, 000300] 2019/07/30 13:03:44.000 {-480} - Electrodes Disconnected: Mask=0x3
hpr_dir/13.tzr [000104, 000600] 2019/07/30 13:03:44.000 {-480} - Electrodes Disconnected: Mask=0x3
hpr_dir/13.tzr [000105, 000300] 2019/07/30 13:04:36.000 {-480} - Electrodes Disconnected: Mask=0x3
hpr_dir/13.tzr [000105, 000600] 2019/07/30 13:04:36.000 {-480} - Electrodes Disconnected: Mask=0x3
hpr_dir/13.tzr [000106, 000300] 2019/07/30 13:05:27.000 {-480} - Electrodes Disconnected: Mask=0x3
hpr_dir/13.tzr [000106, 000600] 2019/07/30 13:05:27.000 {-480} - Electrodes Disconnected: Mask=0x3
hpr_dir/13.tzr [000107, 000300] 2019/07/30 13:06:18.000 {-480} - Electrodes Disconnected: Mask=0x3
hpr_dir/13.tzr [000107, 000600] 2019/07/30 13:06:18.000 {-480} - Electrodes Disconnected: Mask=0x3
hpr_dir/13.tzr [000108, 000300] 2019/07/30 13:07:09.000 {-480} - Electrodes Disconnected: Mask=0x3
hpr_dir/13.tzr [000108, 000600] 2019/07/30 13:07:09.000 {-480} - Electrodes Disconnected: Mask=0x3
hpr_dir/13.tzr [000109, 000300] 2019/07/30 13:08:00.000 {-480} - Electrodes Disconnected: Mask=0x3
hpr_dir/13.tzr [000109, 000600] 2019/07/30 13:08:00.000 {-480} - Electrodes Disconnected: Mask=0x3
hpr_dir/13.tzr [000109, 010339] 2019/07/30 13:08:50.000 {-480} - Battery Voltage: 4162 mV
hpr_dir/13.tzr [000109, 010339] 2019/07/30 13:08:50.000 {-480} - Battery Percent Charge: 98.5938%
hpr_dir/13.tzr [000110, 000300] 2019/07/30 13:08:51.000 {-480} - Electrodes Disconnected: Mask=0x3
hpr_dir/13.tzr [000110, 000600] 2019/07/30 13:08:51.000 {-480} - Electrodes Disconnected: Mask=0x3
hpr_dir/13.tzr [000111, 000300] 2019/07/30 13:09:42.000 {-480} - Electrodes Disconnected: Mask=0x3
hpr_dir/13.tzr [000111, 000600] 2019/07/30 13:09:42.000 {-480} - Electrodes Disconnected: Mask=0x3
hpr_dir/13.tzr [000112, 000300] 2019/07/30 13:10:33.000 {-480} - Electrodes Disconnected: Mask=0x3
hpr_dir/13.tzr [000112, 000600] 2019/07/30 13:10:33.000 {-480} - Electrodes Disconnected: Mask=0x3
hpr_dir/13.tzr [000113, 000300] 2019/07/30 13:11:24.000 {-480} - Electrodes Disconnected: Mask=0x3
hpr_dir/13.tzr [000113, 000600] 2019/07/30 13:11:24.000 {-480} - Electrodes Disconnected: Mask=0x3
hpr_dir/13.tzr [000114, 000300] 2019/07/30 13:12:15.000 {-480} - Electrodes Disconnected: Mask=0x3
hpr_dir/13.tzr [000114, 000600] 2019/07/30 13:12:15.000 {-480} - Electrodes Disconnected: Mask=0x3
hpr_dir/13.tzr [000115, 000300] 2019/07/30 13:13:06.000 {-480} - Electrodes Disconnected: Mask=0x3
hpr_dir/13.tzr [000115, 000600] 2019/07/30 13:13:06.000 {-480} - Electrodes Disconnected: Mask=0x3
hpr_dir/13.tzr [000115, 010219] 2019/07/30 13:13:55.000 {-480} - Battery Voltage: 4162 mV
hpr_dir/13.tzr [000115, 010219] 2019/07/30 13:13:55.000 {-480} - Battery Percent Charge: 98.5352%
hpr_dir/13.tzr [000116, 000300] 2019/07/30 13:13:57.000 {-480} - Electrodes Disconnected: Mask=0x3
hpr_dir/13.tzr [000116, 000600] 2019/07/30 13:13:57.000 {-480} - Electrodes Disconnected: Mask=0x3
hpr_dir/13.tzr [000117, 000300] 2019/07/30 13:14:48.000 {-480} - Electrodes Disconnected: Mask=0x3
hpr_dir/13.tzr [000117, 000600] 2019/07/30 13:14:48.000 {-480} - Electrodes Disconnected: Mask=0x3
hpr_dir/13.tzr [000118, 000300] 2019/07/30 13:15:39.000 {-480} - Electrodes Disconnected: Mask=0x3
hpr_dir/13.tzr [000118, 000600] 2019/07/30 13:15:39.000 {-480} - Electrodes Disconnected: Mask=0x3
hpr_dir/13.tzr [000118, 005700] 2019/07/30 13:15:39.000 {-480} - Electrodes Disconnected: Mask=0x3
hpr_dir/13.tzr [000118, 006000] 2019/07/30 13:15:39.000 {-480} - Electrodes Disconnected: Mask=0x3
hpr_dir/13.tzr [000119, 000300] 2019/07/30 13:16:30.000 {-480} - Electrodes Disconnected: Mask=0x3
hpr_dir/13.tzr [000119, 000600] 2019/07/30 13:16:30.000 {-480} - Electrodes Disconnected: Mask=0x3
hpr_dir/13.tzr [000120, 000300] 2019/07/30 13:17:21.000 {-480} - Electrodes Disconnected: Mask=0x3
hpr_dir/13.tzr [000120, 000600] 2019/07/30 13:17:21.000 {-480} - Electrodes Disconnected: Mask=0x3
hpr_dir/13.tzr [000121, 000300] 2019/07/30 13:18:12.000 {-480} - Electrodes Disconnected: Mask=0x3
hpr_dir/13.tzr [000121, 000600] 2019/07/30 13:18:12.000 {-480} - Electrodes Disconnected: Mask=0x3
hpr_dir/13.tzr [000121, 010110] 2019/07/30 13:19:01.000 {-480} - Battery Voltage: 4161 mV
hpr_dir/13.tzr [000121, 010110] 2019/07/30 13:19:01.000 {-480} - Battery Percent Charge: 98.4609%
hpr_dir/13.tzr [000122, 000300] 2019/07/30 13:19:02.000 {-480} - Electrodes Disconnected: Mask=0x3
hpr_dir/13.tzr [000122, 000600] 2019/07/30 13:19:02.000 {-480} - Electrodes Disconnected: Mask=0x3
hpr_dir/13.tzr [000123, 000300] 2019/07/30 13:19:53.000 {-480} - Electrodes Disconnected: Mask=0x3
hpr_dir/13.tzr [000123, 000600] 2019/07/30 13:19:53.000 {-480} - Electrodes Disconnected: Mask=0x3
hpr_dir/13.tzr [000124, 000300] 2019/07/30 13:20:44.000 {-480} - Electrodes Disconnected: Mask=0x3
hpr_dir/13.tzr [000124, 000600] 2019/07/30 13:20:44.000 {-480} - Electrodes Disconnected: Mask=0x3
hpr_dir/13.tzr [000124, 007500] 2019/07/30 13:20:44.000 {-480} - Electrodes Disconnected: Mask=0x3
hpr_dir/13.tzr [000124, 008100] 2019/07/30 13:20:44.000 {-480} - Electrodes Disconnected: Mask=0x3
hpr_dir/13.tzr [000125, 000300] 2019/07/30 13:21:35.000 {-480} - Electrodes Disconnected: Mask=0x3
hpr_dir/13.tzr [000125, 000600] 2019/07/30 13:21:35.000 {-480} - Electrodes Disconnected: Mask=0x3
hpr_dir/13.tzr [000125, 008100] 2019/07/30 13:21:35.000 {-480} - Electrodes Disconnected: Mask=0x3
hpr_dir/13.tzr [000125, 008400] 2019/07/30 13:21:35.000 {-480} - Electrodes Disconnected: Mask=0x3
hpr_dir/13.tzr [000126, 000300] 2019/07/30 13:22:26.000 {-480} - Electrodes Disconnected: Mask=0x3
hpr_dir/13.tzr [000126, 000600] 2019/07/30 13:22:26.000 {-480} - Electrodes Disconnected: Mask=0x3
hpr_dir/13.tzr [000126, 008700] 2019/07/30 13:22:26.000 {-480} - Electrodes Disconnected: Mask=0x3
hpr_dir/13.tzr [000126, 009000] 2019/07/30 13:22:26.000 {-480} - Electrodes Disconnected: Mask=0x3
hpr_dir/13.tzr [000127, 000300] 2019/07/30 13:23:17.000 {-480} - Electrodes Disconnected: Mask=0x3
hpr_dir/13.tzr [000127, 000600] 2019/07/30 13:23:17.000 {-480} - Electrodes Disconnected: Mask=0x3
hpr_dir/13.tzr [000127, 009984] 2019/07/30 13:24:05.000 {-480} - Battery Voltage: 4161 mV
hpr_dir/13.tzr [000127, 009984] 2019/07/30 13:24:05.000 {-480} - Battery Percent Charge: 98.3867%
hpr_dir/13.tzr [000128, 000300] 2019/07/30 13:24:08.000 {-480} - Electrodes Disconnected: Mask=0x3
hpr_dir/13.tzr [000128, 000600] 2019/07/30 13:24:08.000 {-480} - Electrodes Disconnected: Mask=0x3
hpr_dir/13.tzr [000129, 000300] 2019/07/30 13:24:59.000 {-480} - Electrodes Disconnected: Mask=0x3
hpr_dir/13.tzr [000129, 000600] 2019/07/30 13:24:59.000 {-480} - Electrodes Disconnected: Mask=0x3
hpr_dir/13.tzr [000129, 008700] 2019/07/30 13:24:59.000 {-480} - Electrodes Disconnected: Mask=0x3
hpr_dir/13.tzr [000129, 009000] 2019/07/30 13:24:59.000 {-480} - Electrodes Disconnected: Mask=0x3
hpr_dir/13.tzr [000129, 009600] 2019/07/30 13:24:59.000 {-480} - Electrodes Disconnected: Mask=0x3
hpr_dir/13.tzr [000129, 009900] 2019/07/30 13:24:59.000 {-480} - Electrodes Disconnected: Mask=0x3
hpr_dir/13.tzr [000130, 000300] 2019/07/30 13:25:50.000 {-480} - Electrodes Disconnected: Mask=0x3
hpr_dir/13.tzr [000130, 000600] 2019/07/30 13:25:50.000 {-480} - Electrodes Disconnected: Mask=0x3
hpr_dir/13.tzr [000132, 000300] 2019/07/30 13:27:32.000 {-480} - Electrodes Disconnected: Mask=0x3
hpr_dir/13.tzr [000132, 000600] 2019/07/30 13:27:32.000 {-480} - Electrodes Disconnected: Mask=0x3
hpr_dir/13.tzr [000133, 000300] 2019/07/30 13:28:23.000 {-480} - Electrodes Disconnected: Mask=0x3
hpr_dir/13.tzr [000133, 000600] 2019/07/30 13:28:23.000 {-480} - Electrodes Disconnected: Mask=0x3
hpr_dir/13.tzr [000133, 009871] 2019/07/30 13:29:11.000 {-480} - Battery Voltage: 4161 mV
hpr_dir/13.tzr [000133, 009871] 2019/07/30 13:29:11.000 {-480} - Battery Percent Charge: 98.3242%
hpr_dir/13.tzr [000134, 000300] 2019/07/30 13:29:14.000 {-480} - Electrodes Disconnected: Mask=0x3
hpr_dir/13.tzr [000134, 000600] 2019/07/30 13:29:14.000 {-480} - Electrodes Disconnected: Mask=0x3
hpr_dir/13.tzr [000135, 000300] 2019/07/30 13:30:05.000 {-480} - Electrodes Disconnected: Mask=0x3
hpr_dir/13.tzr [000135, 000600] 2019/07/30 13:30:05.000 {-480} - Electrodes Disconnected: Mask=0x3
hpr_dir/13.tzr [000136, 000300] 2019/07/30 13:30:56.000 {-480} - Electrodes Disconnected: Mask=0x3
hpr_dir/13.tzr [000136, 000600] 2019/07/30 13:30:56.000 {-480} - Electrodes Disconnected: Mask=0x3
hpr_dir/13.tzr [000137, 000300] 2019/07/30 13:31:47.000 {-480} - Electrodes Disconnected: Mask=0x3
hpr_dir/13.tzr [000137, 000600] 2019/07/30 13:31:47.000 {-480} - Electrodes Disconnected: Mask=0x3
hpr_dir/13.tzr [000138, 000300] 2019/07/30 13:32:38.000 {-480} - Electrodes Disconnected: Mask=0x3
hpr_dir/13.tzr [000138, 000600] 2019/07/30 13:32:38.000 {-480} - Electrodes Disconnected: Mask=0x3
hpr_dir/13.tzr [000138, 008400] 2019/07/30 13:32:38.000 {-480} - Electrodes Disconnected: Mask=0x3
hpr_dir/13.tzr [000138, 008700] 2019/07/30 13:32:38.000 {-480} - Electrodes Disconnected: Mask=0x3
hpr_dir/13.tzr [000139, 000300] 2019/07/30 13:33:29.000 {-480} - Electrodes Disconnected: Mask=0x3
hpr_dir/13.tzr [000139, 000600] 2019/07/30 13:33:29.000 {-480} - Electrodes Disconnected: Mask=0x3
hpr_dir/13.tzr [000139, 007051] 2019/07/30 13:34:03.000 {-480} - Pedometer Steps: 7
hpr_dir/13.tzr [000139, 009749] 2019/07/30 13:34:17.000 {-480} - Battery Voltage: 4160 mV
hpr_dir/13.tzr [000139, 009749] 2019/07/30 13:34:17.000 {-480} - Battery Percent Charge: 98.2539%
hpr_dir/13.tzr [000140, 000300] 2019/07/30 13:34:20.000 {-480} - Electrodes Disconnected: Mask=0x3
hpr_dir/13.tzr [000140, 000600] 2019/07/30 13:34:20.000 {-480} - Electrodes Disconnected: Mask=0x3
hpr_dir/13.tzr [000141, 000300] 2019/07/30 13:35:11.000 {-480} - Electrodes Disconnected: Mask=0x3
hpr_dir/13.tzr [000141, 000600] 2019/07/30 13:35:11.000 {-480} - Electrodes Disconnected: Mask=0x3
hpr_dir/13.tzr [000142, 000300] 2019/07/30 13:36:02.000 {-480} - Electrodes Disconnected: Mask=0x3
hpr_dir/13.tzr [000142, 000600] 2019/07/30 13:36:02.000 {-480} - Electrodes Disconnected: Mask=0x3
hpr_dir/13.tzr [000143, 000300] 2019/07/30 13:36:53.000 {-480} - Electrodes Disconnected: Mask=0x3
hpr_dir/13.tzr [000143, 000600] 2019/07/30 13:36:53.000 {-480} - Electrodes Disconnected: Mask=0x3
hpr_dir/13.tzr [000144, 000300] 2019/07/30 13:37:44.000 {-480} - Electrodes Disconnected: Mask=0x3
hpr_dir/13.tzr [000144, 000600] 2019/07/30 13:37:44.000 {-480} - Electrodes Disconnected: Mask=0x3
hpr_dir/13.tzr [000145, 000300] 2019/07/30 13:38:35.000 {-480} - Electrodes Disconnected: Mask=0x3
hpr_dir/13.tzr [000145, 000600] 2019/07/30 13:38:35.000 {-480} - Electrodes Disconnected: Mask=0x3
hpr_dir/13.tzr [000145, 009630] 2019/07/30 13:39:22.000 {-480} - Battery Voltage: 4159 mV
hpr_dir/13.tzr [000145, 009630] 2019/07/30 13:39:22.000 {-480} - Battery Percent Charge: 98.1797%
hpr_dir/13.tzr [000146, 000300] 2019/07/30 13:39:26.000 {-480} - Electrodes Disconnected: Mask=0x3
hpr_dir/13.tzr [000146, 000600] 2019/07/30 13:39:26.000 {-480} - Electrodes Disconnected: Mask=0x3
hpr_dir/13.tzr [000147, 000300] 2019/07/30 13:40:17.000 {-480} - Electrodes Disconnected: Mask=0x3
hpr_dir/13.tzr [000147, 000600] 2019/07/30 13:40:17.000 {-480} - Electrodes Disconnected: Mask=0x3
hpr_dir/13.tzr [000148, 000300] 2019/07/30 13:41:08.000 {-480} - Electrodes Disconnected: Mask=0x3
hpr_dir/13.tzr [000148, 000600] 2019/07/30 13:41:08.000 {-480} - Electrodes Disconnected: Mask=0x3
hpr_dir/13.tzr [000149, 000300] 2019/07/30 13:41:59.000 {-480} - Electrodes Disconnected: Mask=0x3
hpr_dir/13.tzr [000149, 000600] 2019/07/30 13:41:59.000 {-480} - Electrodes Disconnected: Mask=0x3
hpr_dir/13.tzr [000150, 000300] 2019/07/30 13:42:50.000 {-480} - Electrodes Disconnected: Mask=0x3
hpr_dir/13.tzr [000150, 000600] 2019/07/30 13:42:50.000 {-480} - Electrodes Disconnected: Mask=0x3
hpr_dir/13.tzr [000150, 003900] 2019/07/30 13:42:50.000 {-480} - Electrodes Disconnected: Mask=0x3
hpr_dir/13.tzr [000150, 004800] 2019/07/30 13:42:50.000 {-480} - Electrodes Disconnected: Mask=0x3
hpr_dir/13.tzr [000150, 005100] 2019/07/30 13:42:50.000 {-480} - Electrodes Disconnected: Mask=0x3
hpr_dir/13.tzr [000150, 005400] 2019/07/30 13:42:50.000 {-480} - Electrodes Disconnected: Mask=0x3
hpr_dir/13.tzr [000150, 005700] 2019/07/30 13:42:50.000 {-480} - Electrodes Disconnected: Mask=0x0
hpr_dir/13.tzr [000150, 006000] 2019/07/30 13:42:50.000 {-480} - Electrodes Disconnected: Mask=0x3
hpr_dir/13.tzr [000151, 000300] 2019/07/30 13:43:40.000 {-480} - Electrodes Disconnected: Mask=0x3
hpr_dir/13.tzr [000151, 000600] 2019/07/30 13:43:40.000 {-480} - Electrodes Disconnected: Mask=0x3
hpr_dir/13.tzr [000151, 009820] 2019/07/30 13:44:27.000 {-480} - Battery Voltage: 4159 mV
hpr_dir/13.tzr [000151, 009820] 2019/07/30 13:44:27.000 {-480} - Battery Percent Charge: 98.1172%
hpr_dir/13.tzr [000152, 000300] 2019/07/30 13:44:31.000 {-480} - Electrodes Disconnected: Mask=0x3
hpr_dir/13.tzr [000152, 000600] 2019/07/30 13:44:31.000 {-480} - Electrodes Disconnected: Mask=0x3
hpr_dir/13.tzr [000153, 000300] 2019/07/30 13:45:22.000 {-480} - Electrodes Disconnected: Mask=0x3
hpr_dir/13.tzr [000153, 000600] 2019/07/30 13:45:22.000 {-480} - Electrodes Disconnected: Mask=0x3
hpr_dir/13.tzr [000153, 002400] 2019/07/30 13:45:22.000 {-480} - Electrodes Disconnected: Mask=0x3
hpr_dir/13.tzr [000153, 002700] 2019/07/30 13:45:22.000 {-480} - Electrodes Disconnected: Mask=0x3
hpr_dir/13.tzr [000153, 003837] 2019/07/30 13:45:40.000 {-480} - Pedometer Steps: 9
hpr_dir/13.tzr [000153, 009298] 2019/07/30 13:45:22.000 {-480} - Electrodes Disconnected: Mask=0x3
hpr_dir/13.tzr [000153, 009889] 2019/07/30 13:46:10.000 {-480} - Pedometer Steps: 9
hpr_dir/13.tzr [000153, 009596] 2019/07/30 13:45:22.000 {-480} - Electrodes Disconnected: Mask=0x3
hpr_dir/13.tzr [000153, 009896] 2019/07/30 13:45:22.000 {-480} - Electrodes Disconnected: Mask=0x3
hpr_dir/13.tzr [000153, 010196] 2019/07/30 13:45:22.000 {-480} - Electrodes Disconnected: Mask=0x3
hpr_dir/13.tzr [000154, 000300] 2019/07/30 13:46:13.000 {-480} - Electrodes Disconnected: Mask=0x3
hpr_dir/13.tzr [000154, 000600] 2019/07/30 13:46:13.000 {-480} - Electrodes Disconnected: Mask=0x3
hpr_dir/13.tzr [000154, 002100] 2019/07/30 13:46:13.000 {-480} - Electrodes Disconnected: Mask=0x3
hpr_dir/13.tzr [000154, 002400] 2019/07/30 13:46:13.000 {-480} - Electrodes Disconnected: Mask=0x3
hpr_dir/13.tzr [000155, 000300] 2019/07/30 13:47:04.000 {-480} - Electrodes Disconnected: Mask=0x3
hpr_dir/13.tzr [000155, 000600] 2019/07/30 13:47:04.000 {-480} - Electrodes Disconnected: Mask=0x3
hpr_dir/13.tzr [000155, 009600] 2019/07/30 13:47:04.000 {-480} - Electrodes Disconnected: Mask=0x3
hpr_dir/13.tzr [000155, 010200] 2019/07/30 13:47:04.000 {-480} - Electrodes Disconnected: Mask=0x3
hpr_dir/13.tzr [000156, 000300] 2019/07/30 13:47:55.000 {-480} - Electrodes Disconnected: Mask=0x3
hpr_dir/13.tzr [000156, 000600] 2019/07/30 13:47:55.000 {-480} - Electrodes Disconnected: Mask=0x3
hpr_dir/13.tzr [000157, 000300] 2019/07/30 13:48:46.000 {-480} - Electrodes Disconnected: Mask=0x3
hpr_dir/13.tzr [000157, 000600] 2019/07/30 13:48:46.000 {-480} - Electrodes Disconnected: Mask=0x3
hpr_dir/13.tzr [000157, 009705] 2019/07/30 13:49:33.000 {-480} - Battery Voltage: 4159 mV
hpr_dir/13.tzr [000157, 009705] 2019/07/30 13:49:33.000 {-480} - Battery Percent Charge: 98.0469%
hpr_dir/13.tzr [000158, 000300] 2019/07/30 13:49:37.000 {-480} - Electrodes Disconnected: Mask=0x3
hpr_dir/13.tzr [000158, 000600] 2019/07/30 13:49:37.000 {-480} - Electrodes Disconnected: Mask=0x3
hpr_dir/13.tzr [000159, 000300] 2019/07/30 13:50:28.000 {-480} - Electrodes Disconnected: Mask=0x3
hpr_dir/13.tzr [000159, 000600] 2019/07/30 13:50:28.000 {-480} - Electrodes Disconnected: Mask=0x3
hpr_dir/13.tzr [000160, 000300] 2019/07/30 13:51:17.000 {-480} - Electrodes Disconnected: Mask=0x3
hpr_dir/13.tzr [000160, 000600] 2019/07/30 13:51:17.000 {-480} - Electrodes Disconnected: Mask=0x3
hpr_dir/13.tzr [000160, 008100] 2019/07/30 13:51:17.000 {-480} - Electrodes Disconnected: Mask=0x3
hpr_dir/13.tzr [000160, 008700] 2019/07/30 13:51:17.000 {-480} - Electrodes Disconnected: Mask=0x3
hpr_dir/13.tzr [000161, 000300] 2019/07/30 13:52:07.000 {-480} - Electrodes Disconnected: Mask=0x3
hpr_dir/13.tzr [000161, 000600] 2019/07/30 13:52:07.000 {-480} - Electrodes Disconnected: Mask=0x3
hpr_dir/13.tzr [000161, 002400] 2019/07/30 13:52:07.000 {-480} - Electrodes Disconnected: Mask=0x3
hpr_dir/13.tzr [000161, 003000] 2019/07/30 13:52:07.000 {-480} - Electrodes Disconnected: Mask=0x3
hpr_dir/13.tzr [000161, 003600] 2019/07/30 13:52:07.000 {-480} - Electrodes Disconnected: Mask=0x3
hpr_dir/13.tzr [000161, 003900] 2019/07/30 13:52:07.000 {-480} - Electrodes Disconnected: Mask=0x3
hpr_dir/13.tzr [000161, 006300] 2019/07/30 13:52:07.000 {-480} - Electrodes Disconnected: Mask=0x3
hpr_dir/13.tzr [000161, 006600] 2019/07/30 13:52:07.000 {-480} - Electrodes Disconnected: Mask=0x3
hpr_dir/13.tzr [000162, 000300] 2019/07/30 13:52:55.000 {-480} - Electrodes Disconnected: Mask=0x3
hpr_dir/13.tzr [000162, 000600] 2019/07/30 13:52:55.000 {-480} - Electrodes Disconnected: Mask=0x3
hpr_dir/13.tzr [000162, 000900] 2019/07/30 13:52:55.000 {-480} - Electrodes Disconnected: Mask=0x3
hpr_dir/13.tzr [000162, 001500] 2019/07/30 13:52:55.000 {-480} - Electrodes Disconnected: Mask=0x3
hpr_dir/13.tzr [000162, 002400] 2019/07/30 13:52:55.000 {-480} - Electrodes Disconnected: Mask=0x3
hpr_dir/13.tzr [000162, 002700] 2019/07/30 13:52:55.000 {-480} - Electrodes Disconnected: Mask=0x3
hpr_dir/13.tzr [000162, 006600] 2019/07/30 13:52:55.000 {-480} - Electrodes Disconnected: Mask=0x3
hpr_dir/13.tzr [000162, 006900] 2019/07/30 13:52:55.000 {-480} - Electrodes Disconnected: Mask=0x3
hpr_dir/13.tzr [000162, 000000] 2019/07/30 13:58:09.000 {-480} - ECG Recording Interrupted: 100
hpr_dir/13.tzr [000000, 000000] 2019/07/30 13:59:47.000 {-480} - Final Entry
hpr_dir/14.tzr [000163, 000000] 2019/07/30 14:02:28.000 {-480} - ECG Recording Resumed: 0
hpr_dir/14.tzr [000163, 000300] 2019/07/30 14:02:28.000 {-480} - Electrodes Disconnected: Mask=0x3
hpr_dir/14.tzr [000164, 000300] 2019/07/30 14:03:14.000 {-480} - Electrodes Disconnected: Mask=0x3
hpr_dir/14.tzr [000164, 000600] 2019/07/30 14:03:14.000 {-480} - Electrodes Disconnected: Mask=0x3
hpr_dir/14.tzr [000165, 000300] 2019/07/30 14:04:05.000 {-480} - Electrodes Disconnected: Mask=0x3
hpr_dir/14.tzr [000165, 000600] 2019/07/30 14:04:05.000 {-480} - Electrodes Disconnected: Mask=0x3
hpr_dir/14.tzr [000166, 000300] 2019/07/30 14:04:56.000 {-480} - Electrodes Disconnected: Mask=0x3
hpr_dir/14.tzr [000166, 000600] 2019/07/30 14:04:56.000 {-480} - Electrodes Disconnected: Mask=0x3
hpr_dir/14.tzr [000166, 000000] 2019/07/30 14:06:33.000 {-480} - ECG Recording Interrupted: 100
hpr_dir/14.tzr [000167, 000000] 2019/07/30 14:28:31.000 {-480} - ECG Recording Resumed: 0
hpr_dir/14.tzr [000167, 000000] 2019/07/30 14:28:31.000 {-480} - Electrodes Disconnected: Mask=0x0
hpr_dir/14.tzr [000173, 004439] 2019/07/30 14:33:35.000 {-480} - Battery Voltage: 4158 mV
hpr_dir/14.tzr [000173, 004439] 2019/07/30 14:33:35.000 {-480} - Battery Percent Charge: 97.7383%
hpr_dir/14.tzr [000179, 007922] 2019/07/30 14:38:40.000 {-480} - Battery Voltage: 4157 mV
hpr_dir/14.tzr [000179, 007922] 2019/07/30 14:38:40.000 {-480} - Battery Percent Charge: 97.6680%
hpr_dir/14.tzr [000186, 004499] 2019/07/30 14:43:46.000 {-480} - Battery Voltage: 4156 mV
hpr_dir/14.tzr [000186, 004499] 2019/07/30 14:43:46.000 {-480} - Battery Percent Charge: 97.5938%
hpr_dir/14.tzr [000192, 008278] 2019/07/30 14:48:51.000 {-480} - Battery Voltage: 4156 mV
hpr_dir/14.tzr [000192, 008278] 2019/07/30 14:48:51.000 {-480} - Battery Percent Charge: 97.5313%
hpr_dir/14.tzr [000199, 002168] 2019/07/30 14:53:56.000 {-480} - Battery Voltage: 4155 mV
hpr_dir/14.tzr [000199, 002168] 2019/07/30 14:53:56.000 {-480} - Battery Percent Charge: 97.4609%
hpr_dir/14.tzr [000205, 005654] 2019/07/30 14:59:02.000 {-480} - Battery Voltage: 4154 mV
hpr_dir/14.tzr [000205, 005654] 2019/07/30 14:59:02.000 {-480} - Battery Percent Charge: 97.3984%
hpr_dir/14.tzr [000000, 000000] 2019/07/30 15:00:25.000 {-480} - Final Entry

