{
  "format": "TZINT",
  "crc": 44137,
  "deviceType": "H3R  ",
  "deviceSerial": "H3R3003553",
  "firmwareVersion": 2.4,
  "patientId": "hZfYWWszc3qhM3FoTTNGbw==",
  "events": [
    {
      "tag": 16,
      "datetime": "2023-07-26 11:38:54.000-07:00",
      "sequence": 0,
      "sample": 9750,
      "name": "SCP End of File",
      "data": {
        "intData": 0
      }
    },
    {
      "tag": 1,
      "datetime": "2023-07-26 11:38:15.000-07:00",
      "sequence": 0,
      "sample": 1,
      "name": "ECG Recording Started",
      "data": {
        "intData": 0
      }
    },
    {
      "tag": 51,
      "datetime": "2023-07-26 11:38:16.004-07:00",
      "sequence": 0,
      "sample": 251,
      "name": "Electrodes Disconnected",
      "data": {
        "maskData": 0,
        "intData": 0
      }
    },
    {
      "tag": 16,
      "datetime": "2023-07-26 11:39:34.000-07:00",
      "sequence": 1,
      "sample": 10000,
      "name": "SCP End of File",
      "data": {
        "intData": 0
      }
    },
    {
      "tag": 16,
      "datetime": "2023-07-26 11:40:14.000-07:00",
      "sequence": 2,
      "sample": 10000,
      "name": "SCP End of File",
      "data": {
        "intData": 0
      }
    },
    {
      "tag": 16,
      "datetime": "2023-07-26 11:40:54.000-07:00",
      "sequence": 3,
      "sample": 10000,
      "name": "SCP End of File",
      "data": {
        "intData": 0
      }
    },
    {
      "tag": 13,
      "datetime": "2023-07-26 11:38:25.200-07:00",
      "sequence": 0,
      "sample": 2550,
      "name": "Rhythm Change",
      "data": {
        "charData": "n",
        "intData": 110
      }
    },
    {
      "tag": 16,
      "datetime": "2023-07-26 11:41:34.000-07:00",
      "sequence": 4,
      "sample": 10000,
      "name": "SCP End of File",
      "data": {
        "intData": 0
      }
    },
    {
      "tag": 16,
      "datetime": "2023-07-26 11:42:14.000-07:00",
      "sequence": 5,
      "sample": 10000,
      "name": "SCP End of File",
      "data": {
        "intData": 0
      }
    },
    {
      "tag": 16,
      "datetime": "2023-07-26 11:42:54.000-07:00",
      "sequence": 6,
      "sample": 10000,
      "name": "SCP End of File",
      "data": {
        "intData": 0
      }
    },
    {
      "tag": 16,
      "datetime": "2023-07-26 11:43:33.980-07:00",
      "sequence": 7,
      "sample": 9995,
      "name": "SCP End of File",
      "data": {
        "intData": 0
      }
    },
    {
      "tag": 151,
      "datetime": "2023-07-26 11:42:59.128-07:00",
      "sequence": 7,
      "sample": 1282,
      "name": "Battery Voltage",
      "data": {
        "intData": 4178
      }
    },
    {
      "tag": 150,
      "datetime": "2023-07-26 11:42:59.128-07:00",
      "sequence": 7,
      "sample": 1282,
      "name": "Battery Percent Charge",
      "data": {
        "percentData": 99.8047,
        "intData": 25550
      }
    },
    {
      "tag": 155,
      "datetime": "2023-07-26 11:42:59.128-07:00",
      "sequence": 7,
      "sample": 1282,
      "name": "Battery Temperature",
      "data": {
        "intData": 33
      }
    },
    {
      "tag": 16,
      "datetime": "2023-07-26 11:44:13.980-07:00",
      "sequence": 8,
      "sample": 10000,
      "name": "SCP End of File",
      "data": {
        "intData": 0
      }
    },
    {
      "tag": 16,
      "datetime": "2023-07-26 11:44:53.980-07:00",
      "sequence": 9,
      "sample": 10000,
      "name": "SCP End of File",
      "data": {
        "intData": 0
      }
    },
    {
      "tag": 16,
      "datetime": "2023-07-26 11:45:33.980-07:00",
      "sequence": 10,
      "sample": 10000,
      "name": "SCP End of File",
      "data": {
        "intData": 0
      }
    },
    {
      "tag": 16,
      "datetime": "2023-07-26 11:46:13.980-07:00",
      "sequence": 11,
      "sample": 10000,
      "name": "SCP End of File",
      "data": {
        "intData": 0
      }
    },
    {
      "tag": 16,
      "datetime": "2023-07-26 11:46:53.980-07:00",
      "sequence": 12,
      "sample": 10000,
      "name": "SCP End of File",
      "data": {
        "intData": 0
      }
    },
    {
      "tag": 16,
      "datetime": "2023-07-26 11:47:33.980-07:00",
      "sequence": 13,
      "sample": 10000,
      "name": "SCP End of File",
      "data": {
        "intData": 0
      }
    },
    {
      "tag": 16,
      "datetime": "2023-07-26 11:48:13.960-07:00",
      "sequence": 14,
      "sample": 9995,
      "name": "SCP End of File",
      "data": {
        "intData": 0
      }
    },
    {
      "tag": 151,
      "datetime": "2023-07-26 11:48:12.376-07:00",
      "sequence": 14,
      "sample": 9599,
      "name": "Battery Voltage",
      "data": {
        "intData": 4177
      }
    },
    {
      "tag": 150,
      "datetime": "2023-07-26 11:48:12.376-07:00",
      "sequence": 14,
      "sample": 9599,
      "name": "Battery Percent Charge",
      "data": {
        "percentData": 99.7422,
        "intData": 25534
      }
    },
    {
      "tag": 155,
      "datetime": "2023-07-26 11:48:12.376-07:00",
      "sequence": 14,
      "sample": 9599,
      "name": "Battery Temperature",
      "data": {
        "intData": 33
      }
    },
    {
      "tag": 16,
      "datetime": "2023-07-26 11:48:53.960-07:00",
      "sequence": 15,
      "sample": 10000,
      "name": "SCP End of File",
      "data": {
        "intData": 0
      }
    },
    {
      "tag": 16,
      "datetime": "2023-07-26 11:49:33.960-07:00",
      "sequence": 16,
      "sample": 10000,
      "name": "SCP End of File",
      "data": {
        "intData": 0
      }
    },
    {
      "tag": 16,
      "datetime": "2023-07-26 11:50:13.960-07:00",
      "sequence": 17,
      "sample": 10000,
      "name": "SCP End of File",
      "data": {
        "intData": 0
      }
    },
    {
      "tag": 16,
      "datetime": "2023-07-26 11:50:53.960-07:00",
      "sequence": 18,
      "sample": 10000,
      "name": "SCP End of File",
      "data": {
        "intData": 0
      }
    },
    {
      "tag": 16,
      "datetime": "2023-07-26 11:51:33.960-07:00",
      "sequence": 19,
      "sample": 10000,
      "name": "SCP End of File",
      "data": {
        "intData": 0
      }
    },
    {
      "tag": 16,
      "datetime": "2023-07-26 11:52:13.960-07:00",
      "sequence": 20,
      "sample": 10000,
      "name": "SCP End of File",
      "data": {
        "intData": 0
      }
    },
    {
      "tag": 16,
      "datetime": "2023-07-26 11:52:53.960-07:00",
      "sequence": 21,
      "sample": 10000,
      "name": "SCP End of File",
      "data": {
        "intData": 0
      }
    },
    {
      "tag": 16,
      "datetime": "2023-07-26 11:53:33.940-07:00",
      "sequence": 22,
      "sample": 9995,
      "name": "SCP End of File",
      "data": {
        "intData": 0
      }
    },
    {
      "tag": 151,
      "datetime": "2023-07-26 11:53:25.616-07:00",
      "sequence": 22,
      "sample": 7914,
      "name": "Battery Voltage",
      "data": {
        "intData": 4176
      }
    },
    {
      "tag": 150,
      "datetime": "2023-07-26 11:53:25.616-07:00",
      "sequence": 22,
      "sample": 7914,
      "name": "Battery Percent Charge",
      "data": {
        "percentData": 99.6914,
        "intData": 25521
      }
    },
    {
      "tag": 155,
      "datetime": "2023-07-26 11:53:25.616-07:00",
      "sequence": 22,
      "sample": 7914,
      "name": "Battery Temperature",
      "data": {
        "intData": 32
      }
    },
    {
      "tag": 16,
      "datetime": "2023-07-26 11:54:13.940-07:00",
      "sequence": 23,
      "sample": 10000,
      "name": "SCP End of File",
      "data": {
        "intData": 0
      }
    },
    {
      "tag": 16,
      "datetime": "2023-07-26 11:54:53.940-07:00",
      "sequence": 24,
      "sample": 10000,
      "name": "SCP End of File",
      "data": {
        "intData": 0
      }
    },
    {
      "tag": 16,
      "datetime": "2023-07-26 11:55:33.940-07:00",
      "sequence": 25,
      "sample": 10000,
      "name": "SCP End of File",
      "data": {
        "intData": 0
      }
    },
    {
      "tag": 14,
      "datetime": "2023-07-26 11:53:15.656-07:00",
      "sequence": 22,
      "sample": 5424,
      "name": "QRS Count",
      "data": {
        "intData": 821
      }
    },
    {
      "tag": 15,
      "datetime": "2023-07-26 11:53:15.656-07:00",
      "sequence": 22,
      "sample": 5424,
      "name": "PVC Count",
      "data": {
        "intData": 71
      }
    },
    {
      "tag": 3,
      "datetime": "2023-07-26 11:55:33.940-07:00",
      "sequence": 25,
      "sample": 10000,
      "name": "ECG Recording Interrupted",
      "data": {
        "intData": 100
      }
    }
  ]
}
