{
  "format": "TZSET",
  "crc": 22029,
  "deviceType": "H3R  ",
  "firmwareVersion": 2,
  "deviceSerial": "",
  "fileId": 0,
  "checkSettingRanges": true,
  "settings": {
    "brady_bpm": {
      "data": 40
    },
    "tachy_bpm": {
      "data": 120
    },
    "pause_duration": {
      "data": 3000
    },
    "arrhythmia_min_duration": {
      "data": 15
    },
    "detect_pacemaker": {
      "data": false
    },
    "summarize_qrs_detection": {
      "data": 0
    },
    "pedometer_period": {
      "data": 30
    },
    "study_hours": {
      "data": 720
    },
    "sample_rate": {
      "data": 250
    },
    "report_pre_time": {
      "data": 30
    },
    "report_post_time": {
      "data": 30
    },
    "digital_hp_filter": {
      "data": 5
    },
    "start_pin_code": {
      "data": 0
    },
    "digital_lp_filter": {
      "data": 50
    },
    "digital_notch_filter": {
      "data": 60
    },
    "min_time_between_events": {
      "data": 30
    },
    "suppress_rhythm_events": {
      "data": "np"
    },
    "patient_event_pre_time": {
      "data": 30
    },
    "patient_event_post_time": {
      "data": 30
    },
    "allow_low_battery_start": {
      "data": true
    },
    "study_complete_sleep": {
      "data": 300
    },
    "nag_on_lead_off": {
      "data": 300
    },
    "bulk_upload": {
      "data": true
    },
    "transmit_interval_reports": {
      "data": true
    },
    "screen_sleep_time": {
      "data": 20
    },
    "demo_mode": {
      "data": 0
    },
    "symptom_diary_entries": {
      "data": 10
    },
    "activity_diary_entries": {
      "data": 10
    },
    "symptom_entry_1": {
      "data": "1. None"
    },
    "symptom_entry_2": {
      "data": "2. Chest Pain"
    },
    "symptom_entry_3": {
      "data": "3. Dizziness"
    },
    "symptom_entry_4": {
      "data": "4. Skipped Beats"
    },
    "symptom_entry_5": {
      "data": "5. Tired or Fatigued"
    },
    "symptom_entry_6": {
      "data": "6. Rapid Heartbeat"
    },
    "symptom_entry_7": {
      "data": "7. Passed Out"
    },
    "symptom_entry_8": {
      "data": "8. Shortness of Breath"
    },
    "symptom_entry_9": {
      "data": "9. Lightheadedness"
    },
    "symptom_entry_10": {
      "data": "10.Irregular Heartbeat"
    },
    "activity_entry_1": {
      "data": "1. None"
    },
    "activity_entry_2": {
      "data": "2. Sitting"
    },
    "activity_entry_3": {
      "data": "3. Laying Down"
    },
    "activity_entry_4": {
      "data": "4. Walking (Shopping)"
    },
    "activity_entry_5": {
      "data": "5. Cleaning"
    },
    "activity_entry_6": {
      "data": "6. Bending or Standing"
    },
    "activity_entry_7": {
      "data": "7. Exercise"
    },
    "activity_entry_8": {
      "data": "8. Climbing Stairs"
    },
    "activity_entry_9": {
      "data": "9. Driving"
    },
    "activity_entry_10": {
      "data": "10. Eating or Just Ate"
    },
    "patient_id": {
      "data": ""
    },
    "top_banner": {
      "data": ""
    },
    "bottom_banner": {
      "data": ""
    },
    "server_address": {
      "data": "devices.bitrhythm.io"
    },
    "tls_identity": {
      "data": "use_ecdsa"
    },
    "tls_psk": {
      "data": ""
    },
    "apn_address": {
      "data": "m2m005322.attz"
    },
    "apn_username": {
      "data": ""
    },
    "apn_password": {
      "data": ""
    },
    "http_bearer_token": {
      "data": ""
    },
    "connection_timeout": {
      "data": 5
    },
    "error_retries": {
      "data": 5
    },
    "error_period": {
      "data": 30
    }
  }
}